<?xml version="1.0" encoding="UTF-8" standalone="no"?>
<!-- Created with Inkscape (http://www.inkscape.org/) -->

<svg
   width="562.39044mm"
   height="527.57697mm"
   viewBox="0 0 562.39043 527.57697"
   version="1.1"
   id="svg1"
   xml:space="preserve"
   inkscape:version="1.3.2 (091e20ef0f, 2023-11-25, custom)"
   sodipodi:docname="SolarpunkLogo02_3_.svg"
   inkscape:export-filename="SolarpunkLogo02_3_.png"
   inkscape:export-xdpi="16.710812"
   inkscape:export-ydpi="16.710812"
   xmlns:inkscape="http://www.inkscape.org/namespaces/inkscape"
   xmlns:sodipodi="http://sodipodi.sourceforge.net/DTD/sodipodi-0.dtd"
   xmlns:xlink="http://www.w3.org/1999/xlink"
   xmlns="http://www.w3.org/2000/svg"
   xmlns:svg="http://www.w3.org/2000/svg"><sodipodi:namedview
     id="namedview1"
     pagecolor="#ffffff"
     bordercolor="#666666"
     borderopacity="1.0"
     inkscape:showpageshadow="2"
     inkscape:pageopacity="0.0"
     inkscape:pagecheckerboard="0"
     inkscape:deskcolor="#d1d1d1"
     inkscape:document-units="mm"
     inkscape:zoom="0.18730184"
     inkscape:cx="1310.7186"
     inkscape:cy="1412.1591"
     inkscape:window-width="1920"
     inkscape:window-height="1017"
     inkscape:window-x="0"
     inkscape:window-y="0"
     inkscape:window-maximized="1"
     inkscape:current-layer="layer1"
     showgrid="false" /><defs
     id="defs1"><clipPath
       clipPathUnits="userSpaceOnUse"
       id="clipPath275"><path
         id="path275"
         style="stroke-width:0.0999999;stroke-linecap:square;paint-order:markers fill stroke;stop-color:#000000"
         d="M 1806.4991,-753.5228 H 3443.7637 V -686.61747 H 1806.4991 Z" /></clipPath><clipPath
       clipPathUnits="userSpaceOnUse"
       id="clipPath51"><path
         id="path7"
         style="stroke-width:0.0999999;stroke-linecap:square;paint-order:markers fill stroke;stop-color:#000000"
         d="M 1806.4991,-753.5228 H 3443.7637 V -686.61747 H 1806.4991 Z" /></clipPath><clipPath
       clipPathUnits="userSpaceOnUse"
       id="clipPath275-0"><path
         id="path275-7"
         style="stroke-width:0.0999999;stroke-linecap:square;paint-order:markers fill stroke;stop-color:#000000"
         d="M 1806.4991,-753.5228 H 3443.7637 V -686.61747 H 1806.4991 Z" /></clipPath><clipPath
       clipPathUnits="userSpaceOnUse"
       id="clipPath51-5"><path
         id="path7-8"
         style="stroke-width:0.0999999;stroke-linecap:square;paint-order:markers fill stroke;stop-color:#000000"
         d="M 1806.4991,-753.5228 H 3443.7637 V -686.61747 H 1806.4991 Z" /></clipPath><pattern
       inkscape:collect="always"
       xlink:href="#halftones"
       preserveAspectRatio="xMidYMid"
       id="pattern3"
       patternTransform="matrix(1.2161469,0,0,1.2161469,14.149428,-142.84526)"
       x="0"
       y="0" /><pattern
       patternUnits="userSpaceOnUse"
       width="10"
       height="10"
       preserveAspectRatio="xMidYMid"
       style="fill:#000000"
       id="halftones"
       x="0"
       y="0"
       inkscape:label="Halbtöne"
       inkscape:collect="always"
       inkscape:isstock="true"><g
         id="fullPattern"
         style="display:inline"
         transform="scale(0.1)"><circle
           style="fill-opacity:1;stroke:none;paint-order:markers fill stroke;stop-color:#000000"
           id="circle10"
           cx="50"
           cy="50"
           r="25" /><path
           id="circle37"
           style="paint-order:markers fill stroke"
           d="M 25,0 A 25,25 0 0 1 0,25 25,25 0 0 1 -25,0 25,25 0 0 1 0,-25 25,25 0 0 1 25,0 Z" /><path
           id="circle39"
           style="paint-order:markers fill stroke"
           d="M 125,0 A 25,25 0 0 1 100,25 25,25 0 0 1 75,0 25,25 0 0 1 100,-25 25,25 0 0 1 125,0 Z" /><path
           id="circle43"
           style="paint-order:markers fill stroke"
           d="M 25,100 A 25,25 0 0 1 0,125 25,25 0 0 1 -25,100 25,25 0 0 1 0,75 25,25 0 0 1 25,100 Z" /><path
           id="circle45"
           style="paint-order:markers fill stroke"
           d="m 125,100 a 25,25 0 0 1 -25,25 25,25 0 0 1 -25,-25 25,25 0 0 1 25,-25 25,25 0 0 1 25,25 z" /></g></pattern><pattern
       inkscape:collect="always"
       xlink:href="#pattern277"
       preserveAspectRatio="xMidYMid"
       id="pattern278"
       patternTransform="translate(214.76875,1773.0404)" /><pattern
       inkscape:collect="always"
       xlink:href="#shading28"
       preserveAspectRatio="xMidYMid"
       id="pattern277"
       patternTransform="translate(214.03204,1772.8895)" /><pattern
       patternUnits="userSpaceOnUse"
       width="372.7764"
       height="26.2726"
       patternTransform="translate(213.95321,1778.8589)"
       preserveAspectRatio="xMidYMid"
       id="shading28"
       style="fill:#000000"
       inkscape:label="Schrumpfende Rauten 1 (Halbton)"
       inkscape:collect="always"
       inkscape:isstock="true"><path
         id="use29"
         style="stroke-width:0.113103;stroke-linecap:square;paint-order:markers fill stroke;stop-color:#000000"
         d="m 372.7764,13.1363 -0.2185,0.2185 -0.2185,-0.2185 0.2185,-0.2185 z m -18.237,0 -0.8984,0.8984 -0.8984,-0.8984 0.8984,-0.8984 z m -18.2371,0 -1.5782,1.5783 -1.5783,-1.5783 1.5783,-1.5783 z m -18.237,0 -2.2581,2.2581 -2.2582,-2.2581 2.2582,-2.2582 z m -18.237,0 -2.9381,2.938 -2.938,-2.938 2.938,-2.938 z m -18.2371,0 -3.6179,3.6179 -3.6179,-3.6179 3.6179,-3.6179 z m -18.237,0 -4.2978,4.2978 -4.2978,-4.2978 4.2978,-4.2978 z m -18.2371,0 -4.9777,4.9777 -4.9776,-4.9777 4.9776,-4.9777 z m -18.237,0 -5.6576,5.6576 -5.6576,-5.6576 5.6576,-5.6576 z m -18.2371,0 -6.3374,6.3374 -6.3375,-6.3374 6.3375,-6.3375 z m -18.237,0 -7.0173,7.0173 -7.0174,-7.0173 7.0174,-7.0174 z m -18.237,0 -7.6973,7.6972 -7.6972,-7.6972 7.6972,-7.6972 z m -18.2371,0 -8.3771,8.3771 -8.3771,-8.3771 8.3771,-8.3771 z m -18.237,0 -9.057,9.057 -9.057,-9.057 9.057,-9.057 z m -18.2371,0 -9.7369,9.7369 -9.7368,-9.7369 9.7368,-9.7369 z m -18.237,0 L 88.804,23.5531 78.3873,13.1363 88.804,2.7195 Z m -18.2371,0 L 69.8871,24.2329 58.7904,13.1363 69.8871,2.0396 Z m -18.237,0 L 50.9702,24.9128 39.1936,13.1363 50.9702,1.3598 Z m -18.2371,0 L 32.0532,25.5927 19.5968,13.1363 32.0532,0.6799 Z m -18.237,0 L 13.1363,26.2726 0,13.1363 13.1363,0 Z"
         sodipodi:nodetypes="cccccccccc" /></pattern><pattern
       inkscape:collect="always"
       xlink:href="#pattern15-8"
       preserveAspectRatio="xMidYMid"
       id="pattern280"
       patternTransform="rotate(-15,621.27709,-1637.5553)"
       x="0"
       y="0" /><pattern
       patternUnits="userSpaceOnUse"
       width="20"
       height="20"
       patternTransform="translate(445,105)"
       preserveAspectRatio="xMidYMid"
       style="fill:#000000"
       id="pattern15-8"
       inkscape:label="Invertierter Zopf"
       inkscape:collect="always"
       inkscape:isstock="true"><path
         style="stroke-width:4.8561;stroke-linecap:square;paint-order:stroke markers fill;stop-color:#000000"
         d="M 0,0 V 10 H 10 C 5,10 0,5 0,0 Z M 10,10 V 0 H 20 C 15,0 10,5 10,10 Z m 0,10 V 10 H 0 c 5,0 10,5 10,10 z M 20,10 V 20 H 10 c 5,0 10,-5 10,-10 z"
         id="path11-3"
         sodipodi:nodetypes="cccc" /></pattern><pattern
       inkscape:collect="always"
       xlink:href="#halftones"
       preserveAspectRatio="xMidYMid"
       id="pattern2"
       patternTransform="scale(1)"
       x="0"
       y="0" /><pattern
       inkscape:collect="always"
       xlink:href="#shading23"
       preserveAspectRatio="xMidYMid"
       id="pattern275"
       patternTransform="rotate(-75,991.75616,554.76049)"
       x="0"
       y="0"
       width="941.78408203" /><pattern
       patternUnits="userSpaceOnUse"
       width="523.21338"
       height="23.055199"
       patternTransform="translate(199.2133,1369.1408)"
       preserveAspectRatio="xMidYMid"
       id="shading23"
       style="fill:#000000"
       inkscape:label="Raue Linien 2 (Halbton)"
       inkscape:collect="always"
       inkscape:isstock="true"><path
         style="fill-rule:nonzero;stroke:none;stroke-width:0.1;stroke-linecap:square;paint-order:markers fill stroke;stop-color:#000000"
         d="m 1806.4991,-757.90717 v 8.76728 9.38946 c 1.9978,0.004 4.0219,-1.62411 6.072,-1.62213 2.0502,-1.62858 4.1263,0.003 6.228,0.004 2.1012,4.7e-4 4.228,-0.22888 6.3801,-0.2299 2.152,-0.23009 4.3292,3.71299 6.5313,3.71052 2.2045,3.7133 4.4338,-0.42019 6.6877,-0.42442 2.2522,-0.4186 4.5289,0.0253 6.8297,0.0194 2.3012,0.0287 4.6266,-0.96193 6.9759,-0.96954 2.348,-0.95683 4.7198,-0.0481 7.1151,-0.0572 2.3964,-0.0412 4.8162,0.45767 7.2592,0.44695 2.4439,0.46608 4.9109,1.73887 7.4008,1.72657 2.4923,1.74881 5.0076,-0.58165 7.5454,-0.59568 2.5336,-0.57018 5.0897,0.28135 7.668,0.26572 2.58,0.29453 5.1821,0.34727 7.806,0.32999 2.6241,0.3621 5.27,0.51582 7.9374,0.49687 2.668,0.53229 5.3574,-0.58157 8.0679,-0.60221 2.7077,-0.56343 5.4364,0.0843 8.1859,0.0621 2.7513,0.1041 5.5233,0.56804 8.3157,0.54421 2.7938,0.58948 5.6081,-1.25745 8.4425,-1.28292 2.8288,-1.23437 5.6776,-1.05408 8.5461,-1.08097 2.8689,-1.02939 5.7575,-3.0735 8.6654,-3.10172 2.9012,-3.0472 5.8216,3.14599 8.761,3.11687 2.9599,3.17347 5.939,-1.39524 8.9369,-1.42589 2.9825,-1.36643 5.9837,0.8818 9.0031,0.85017 3.0274,0.91165 6.0732,1.04284 9.137,1.0099 3.0645,1.07392 6.147,-1.73925 9.2472,-1.77354 3.0899,-1.70685 6.1974,2.64159 9.3221,2.60631 3.1414,2.67504 6.3001,1.45653 9.476,1.41963 3.1716,1.49134 6.3602,-0.21021 9.5654,-0.24866 3.1987,-0.17406 6.414,0.853 9.6456,0.81308 3.236,0.89056 6.4883,0.89041 9.7566,0.84879 3.2687,0.92957 6.5533,0.9582 9.8535,0.91484 3.3007,0.99896 6.6171,0.57627 9.9487,0.53106 3.3301,0.61874 6.6755,-0.95012 10.0357,-0.99721 3.353,-0.90576 6.7208,0.0608 10.1031,0.0121 3.3871,0.10685 6.7887,0.39007 10.2045,0.33955 3.4175,0.43798 6.8492,-0.25579 10.2948,-0.30809 3.4422,-0.20607 6.8983,-0.20406 10.3679,-0.25801 3.4697,-0.15265 6.953,1.88345 10.4494,1.82785 3.5078,1.9364 7.0289,-0.0748 10.5628,-0.13252 3.5235,-0.0198 7.0597,0.37013 10.6084,0.31072 3.5512,0.42669 7.1149,-1.37368 10.6908,-1.43505 3.5655,-1.315 7.1432,-3.51286 10.7325,-3.57571 3.5762,-3.45226 7.164,4.44739 10.7632,4.38372 3.6467,4.50864 7.305,0.89342 10.9746,0.82708 3.6488,0.95741 7.3087,0.21453 10.9793,0.14663 3.6666,0.27961 7.3439,0.42448 11.0316,0.35471 3.6892,0.49132 7.3888,0.22981 11.0984,0.15801 3.7084,0.29864 7.4269,1.01228 11.1551,0.93849 3.7337,1.08297 7.4771,1.94455 11.2299,1.86847 3.7599,2.01722 7.5292,0.34478 11.3076,0.26604 3.7676,0.41998 7.5443,0.3485 11.3296,0.26743 3.7856,0.42577 7.5797,-0.0627 11.3822,-0.14638 3.7995,0.0171 7.6073,-0.12468 11.423,-0.21078 3.8152,-0.0423 7.6383,0.47916 11.4691,0.3906 3.8355,0.56392 7.6787,1.56977 11.5291,1.47856 3.8599,1.65696 7.7271,-1.9638 11.6012,-2.05808 3.8448,-1.87307 7.6964,-0.31136 11.5546,-0.40727 3.8714,-0.21928 7.7494,-2.68184 11.6336,-2.78035 3.863,-2.58619 7.7322,-0.0578 11.6073,-0.15738 3.8972,0.0388 7.8004,0.69534 11.709,0.59356 3.9155,0.79453 7.8365,-0.0427 11.7627,-0.1464 3.9198,0.0586 7.8448,-0.38021 11.7746,-0.48551 3.9267,-0.27742 7.8582,-1.584 11.7941,-1.69085 3.9246,-1.47928 7.8535,1.00652 11.7866,0.89876 3.957,1.1118 7.9182,-1.00622 11.8832,-1.11613 3.9462,-0.89802 7.8962,-2.81161 11.8496,-2.9222 3.9357,-2.70233 7.8749,2.52723 11.8171,2.41667 3.9929,2.6357 7.9889,-1.16281 11.9877,-1.27598 3.9638,-1.05042 7.9304,1.70421 11.8994,1.59118 3.9968,1.81519 7.996,0.56852 11.9973,0.45333 3.9908,0.68198 7.9838,-1.2457 11.9784,-1.36212 3.9766,-1.13103 7.9549,2.21172 11.9346,2.09468 4.0145,2.32604 8.0304,0.7204 12.0474,0.60049 4.0028,0.83796 8.0067,-0.26385 12.0113,-0.3854 3.9946,-0.14506 7.9898,-0.65742 11.9855,-0.78063 3.9911,-0.53698 7.9827,-1.93892 11.9742,-2.06372 3.9771,-1.81624 7.9543,-0.57846 11.9311,-0.70385 3.9907,-0.45506 7.981,-0.82341 11.9707,-0.95012 3.9867,-0.6979 7.9728,-1.77789 11.9578,-1.90509 3.9742,-1.65122 7.9474,-0.10651 11.9193,-0.23334 3.9896,0.0198 7.9778,0.12239 11.9643,-0.005 3.9891,0.24974 7.9764,-1.97186 11.9617,-2.09939 3.9624,-1.8437 7.9227,0.81275 11.8807,0.6866 3.9879,0.93895 7.9733,1.01851 11.9559,0.89168 3.9853,1.14566 7.9678,-0.4206 11.9471,-0.54776 3.964,-0.29329 7.9249,-2.17087 11.8823,-2.29764 3.9381,-2.04363 7.8727,0.88245 11.8036,0.75712 3.9637,1.00797 7.9236,2.58325 11.8793,2.45722 3.9751,2.70919 7.9459,-0.47796 11.9121,-0.60561 3.9336,-0.35072 7.8627,-3.40531 11.7869,-3.53268 3.8911,-3.278 7.7775,-0.002 11.6588,-0.1276 3.9181,0.12337 7.8309,2.42793 11.7383,2.30219 3.9345,2.55405 7.8634,0.63011 11.7863,0.5029 3.9043,0.75705 7.8027,2.65616 11.6947,2.52855 3.9166,2.7815 7.8268,-0.39817 11.7302,-0.52921 3.8698,-0.2699 7.733,-2.3045 11.5893,-2.43675 3.8325,-2.1749 7.6582,1.94381 11.4767,1.81149 3.8689,2.07309 7.7304,1.13101 11.5843,0.99471 3.8461,1.26427 7.6845,0.28925 11.5149,0.15022 3.821,0.42417 7.634,0.29179 11.4386,0.14992 3.8053,0.42894 7.6021,-0.19261 11.3903,-0.33788 3.7819,-0.0521 7.5552,-0.27752 11.3194,-0.42574 3.7627,-0.13397 7.5164,-0.16941 11.2608,-0.32053 3.7455,-0.0227 7.4817,-1.58757 11.2082,-1.74156 3.705,-1.43686 7.4004,-3.0294 11.0858,-3.18397 3.662,-2.876 7.3143,0.33614 10.9563,0.18367 3.6893,0.48833 7.3682,0.70074 11.0363,0.54692 3.6741,0.8553 7.3375,0.51568 10.9896,0.36139 3.6505,0.66975 7.2899,-0.88243 10.9178,-1.03754 3.6072,-0.72772 7.203,1.12434 10.7872,0.97004 3.6144,1.27728 7.2169,-1.31189 10.8071,-1.469 3.5535,-1.15536 7.0951,-1.51576 10.6243,-1.67134 3.5245,-1.36002 7.0366,-0.57402 10.5361,-0.72783 3.5129,-0.41842 7.0131,1.795 10.5002,1.64265 3.5239,1.94882 7.0344,1.69209 10.5312,1.53743 3.499,1.84567 6.9843,1.17552 10.4555,1.01743 3.4671,1.3289 6.9202,-0.35188 10.3588,-0.51496 3.4145,-0.19528 6.8148,-0.22192 10.2006,-0.38837 3.3872,-0.0622 6.7598,0.0126 10.1176,-0.15804 3.3617,0.17702 6.7085,0.17563 10.04,5.2e-4 3.3351,0.34436 6.6548,1.28114 9.9589,1.1012 3.3287,1.45293 6.6416,-0.25956 9.9381,-0.44826 3.2677,-0.0801 6.5193,-0.45499 9.7547,-0.64867 3.2295,-0.27069 6.4427,-2.97299 9.6394,-3.17187 3.135,-2.77838 6.2541,-4.09037 9.3568,-4.28376 3.0737,-3.8926 6.1314,-0.0479 9.1728,-0.22817 3.125,0.14432 6.2328,1.49335 9.3229,1.31869 3.1218,1.68208 6.2256,0.1537 9.3112,-0.018 3.0614,0.3339 6.1049,1.26932 9.1299,1.10211 3.0498,1.44001 6.0809,-0.0397 9.0929,-0.21067 2.9884,0.12923 5.958,-2.1601 8.9086,-2.33233 2.9033,-1.98881 5.7882,-0.33103 8.6543,-0.49444 2.9013,-0.16048 5.7833,-0.0201 8.6457,-0.17913 2.869,0.14821 5.7183,-0.80787 8.5476,-0.96229 2.8139,-0.64503 5.6079,-0.10039 8.3819,-0.24581 2.7871,0.0566 5.5539,-0.0109 8.3,-0.15004 2.7483,0.13867 5.4759,0.76318 8.1823,0.62903 2.7227,0.90435 5.424,0.10386 8.1036,-0.0342 2.6697,0.23823 5.3178,-1.65625 7.9441,-1.79864 2.5887,-1.5186 5.1561,0.99949 7.702,0.87133 2.5971,1.1433 5.1718,-1.20244 7.7236,-1.33724 2.5094,-1.07079 4.9967,0.0258 7.4616,-0.0942 2.4875,0.16351 4.9521,2.60144 7.3936,2.488 2.5138,2.72316 5.0031,1.3675 7.4674,1.19391 2.4836,1.45908 4.9419,0.16172 7.3745,-0.10066 2.3917,0.30564 4.7585,-0.86748 7.1001,-1.19915 2.2531,-0.62419 4.4828,-2.55815 6.6889,-2.89642 2.0995,-2.22505 4.1776,-0.33951 6.2339,-0.54237 2.188,0.0222 4.3514,-1.8591 6.4898,-1.99405 2.1644,-1.60893 4.3033,1.93425 6.4162,2.08246 2.1134,2.15288 4.2008,0.14422 6.262,-0.17089 2.0164,-0.30825 4.0076,-0.90346 5.9733,-0.90346 -1.9978,0 -4.0219,1.14972 -6.072,1.1481 -2.0506,1.14891 -4.1272,-1.00606 -6.2294,-1.00939 -2.1011,-1.00528 -4.2278,0.1837 -6.3798,0.17878 -2.1526,0.18625 -4.3305,-0.44569 -6.5333,-0.4522 -2.2022,-0.44157 -4.4292,1.1288 -6.6808,1.12076 -2.2536,1.13454 -4.5318,1.59746 -6.8342,1.58781 -2.3036,1.6047 -4.6315,-1.24607 -6.9832,-1.25747 -2.3473,-1.23727 -4.7183,1.01795 -7.1129,1.00498 -2.3985,1.02851 -4.8207,0.23428 -7.2661,0.21962 -2.444,0.24645 -4.9111,0.87603 -7.4012,0.85969 -2.4916,0.88985 -5.006,-0.56915 -7.543,-0.58723 -2.5336,-0.55365 -5.0896,0.70132 -7.6677,0.6816 -2.5815,0.71854 -5.185,0.82611 -7.8104,0.80466 -2.626,0.84499 -5.2738,0.008 -7.9431,-0.0157 -2.667,0.0281 -5.3554,-0.56907 -8.065,-0.59403 -2.7076,-0.5467 -5.4364,-1.36579 -8.1858,-1.39239 -2.7467,-1.34164 -5.514,0.0531 -8.3016,0.025 -2.7924,0.0789 -5.6051,0.84573 -8.4379,0.81613 -2.8357,0.87308 -5.6914,0.0435 -8.567,0.0123 -2.8727,0.0724 -5.7651,0.93483 -8.6769,0.90212 -2.9152,0.96519 -5.8499,-0.89687 -8.8037,-0.93124 -2.9466,-0.86486 -5.9122,0.30969 -8.8964,0.27389 -2.989,0.34318 -5.9967,1.03771 -9.0228,1.00033 -3.0292,1.07276 -6.0768,0.45079 -9.1424,0.41174 -3.0633,0.48742 -6.1446,2.34079 -9.2436,2.30011 -3.1077,2.37886 -6.2331,-1.99692 -9.376,-2.03965 -3.1231,-1.95683 -6.2634,-0.24542 -9.4205,-0.28952 -3.1651,-0.20389 -6.3471,-0.49802 -9.5457,-0.54383 -3.1973,-0.45458 -6.4112,-0.14363 -9.6413,-0.19093 -3.2318,-0.0986 -6.4799,0.15324 -9.7438,0.10443 -3.2655,0.19983 -6.5469,-0.0222 -9.8438,-0.0725 -3.2961,0.026 -6.6077,-0.56277 -9.9346,-0.61453 -3.324,-0.51314 -6.6631,-1.17071 -10.0172,-1.22378 -3.3506,-1.11962 -6.7161,-0.007 -10.0961,-0.0609 -3.3862,0.0457 -6.7869,-1.12086 -10.2018,-1.17634 -3.4088,-1.06704 -6.8317,-1.36544 -10.2684,-1.42182 -3.4353,-1.31053 -6.8844,3.22895 -10.3469,3.17181 -3.4881,3.28449 -6.9898,-0.84827 -10.5047,-0.9071 -3.4923,-0.79097 -6.9976,-0.21196 -10.5157,-0.27154 -3.5217,-0.15412 -7.0562,0.37768 -10.6031,0.31697 -3.5503,0.43672 -7.1131,0.74305 -10.688,0.68115 -3.5771,0.80323 -7.1664,0.50995 -10.7675,0.44676 -3.5998,0.5713 -7.2113,-1.2681 -10.8343,-1.33258 -3.6124,-1.20539 -7.2361,3.54581 -10.8708,3.48045 -3.6642,3.60903 -7.3395,-1.58862 -11.0257,-1.65621 -3.6548,-1.52298 -7.3203,-0.97519 -10.996,-1.04358 -3.6794,-0.90892 -7.3691,-0.14375 -11.0688,-0.21341 -3.7048,-0.076 -7.4197,-4.6357 -11.1443,-4.70661 -3.6958,-4.56597 -7.4011,3.74242 -11.1156,3.67176 -3.768,3.81162 -7.5454,-0.10662 -11.332,-0.17932 -3.7621,-0.035 -7.5331,-0.87354 -11.3128,-0.94676 -3.7747,-0.80169 -7.558,-1.45401 -11.3495,-1.52793 -3.7877,-1.38122 -7.5836,0.14501 -11.3875,0.0707 -3.8143,0.21841 -7.6365,1.82886 -11.4664,1.75375 -3.8411,1.90293 -7.6899,-0.1008 -11.5459,-0.17707 -3.8434,-0.0257 -7.694,1.33558 -11.5516,1.25865 -3.8673,1.41097 -7.7416,1.52293 -11.6225,1.4446 -3.8826,1.59944 -7.7718,-0.11629 -11.6672,-0.19618 -3.8844,-0.0385 -7.7749,-0.64649 -11.6714,-0.72763 -3.8926,-0.56748 -7.7911,-0.49457 -11.6951,-0.57694 -3.9049,-0.41418 -7.8154,-0.67626 -11.731,-0.75984 -3.9142,-0.59442 -7.8335,1.37889 -11.7577,1.29431 -3.9393,1.46162 -7.8834,1.82024 -11.832,1.73398 -3.9526,1.90437 -7.9096,0.77999 -11.8708,0.69182 -3.9541,0.86561 -7.9123,1.31273 -11.8743,1.22273 -3.9667,1.39965 -7.9372,-0.32301 -11.9112,-0.41543 -3.9614,-0.23376 -7.9262,1.93169 -11.8942,1.83738 -3.9867,2.0223 -7.9766,2.36094 -11.9692,2.26346 -3.9979,2.45424 -7.9987,0.90986 -12.0018,0.80889 -3.9922,1.00609 -7.9868,-3.43133 -11.9834,-3.53556 -3.957,-3.33135 -7.916,2.7508 -11.8766,2.64517 -4.0168,2.85131 -8.0353,-1.60661 -12.0551,-1.71704 -3.9796,-1.50001 -7.9606,0.12861 -11.9426,0.0166 -3.998,0.23616 -7.997,2.44609 -11.9967,2.33089 -4.0237,2.55653 -8.0482,-3.18159 -12.073,-3.30102 -3.9675,-3.06573 -7.9354,1.79856 -11.9032,1.67849 -4.0187,1.9136 -8.0374,-1.01709 -12.0557,-1.1417 -3.989,-0.89604 -7.9776,1.54591 -11.9655,1.41965 -4.0159,1.66747 -8.0311,1.07308 -12.0453,0.9428 -4.0103,1.19881 -8.0197,-0.39313 -12.0276,-0.52679 -3.9915,-0.26413 -7.9817,-0.80989 -11.9701,-0.94628 -3.9829,-0.67819 -7.964,-0.86201 -11.943,-1.00111 -3.9775,-0.72718 -7.9529,-0.18876 -11.9259,-0.33034 -3.9807,-0.0512 -7.9589,-2.50529 -11.9343,-2.64959 -3.9456,-2.36355 -7.8884,-0.10365 -11.8281,-0.24821 -3.9687,0.0379 -7.9343,-1.94748 -11.8964,-2.09444 -3.9382,-1.80163 -7.873,-0.15673 -11.804,-0.30328 -3.953,-0.0117 -7.9023,-1.03659 -11.8474,-1.18443 -3.9336,-0.88899 -7.8631,-0.31847 -11.7881,-0.4659 -3.9339,-0.17139 -7.8633,0.88313 -11.7878,0.73542 -3.9403,1.03036 -7.8756,-0.10714 -11.8057,-0.2559 -3.9178,0.0414 -7.8304,-0.34684 -11.7374,-0.49561 -3.9038,-0.19864 -7.8021,-1.02919 -11.6946,-1.17818 -3.8831,-0.88033 -7.7604,1.11067 -11.6316,0.96219 -3.8992,1.25834 -7.7922,-0.72791 -11.6785,-0.87806 -3.8624,-0.57769 -7.7183,-0.50805 -11.5673,-0.65748 -3.8515,-0.35901 -7.696,0.55904 -11.5334,0.40953 -3.8517,0.70806 -7.696,-0.24729 -11.5327,-0.3978 -3.8262,-0.097 -7.6448,-0.84093 -11.4555,-0.99139 -3.8022,-0.69065 -7.5966,1.31368 -11.3827,1.1637 -3.8156,1.46273 -7.6229,-0.30283 -11.4214,-0.45493 -3.7771,-0.15125 -7.5456,0.30939 -11.305,0.15737 -3.7681,0.45993 -7.5271,0.39586 -11.2768,0.24238 -3.7515,0.54764 -7.4936,-0.44855 -11.2259,-0.60363 -3.7204,-0.2952 -7.4311,0.30323 -11.1318,0.14745 -3.7116,0.4568 -7.4131,-1.33385 -11.1043,-1.49165 -3.6664,-1.17728 -7.3226,3.15117 -10.9682,2.99403 -3.7143,3.3048 -7.4176,-1.92669 -11.1095,-2.09047 -3.6155,-1.76496 -7.2201,0.68587 -10.8134,0.52387 -3.6331,0.84374 -7.2546,-1.03258 -10.8643,-1.19885 -3.5822,-0.86868 -7.1527,0.0477 -10.7111,-0.11864 -3.5752,0.21134 -7.1382,-1.88156 -10.6888,-2.05026 -3.5175,-1.71355 -7.0228,-0.36559 -10.5155,-0.53212 -3.5162,-0.19923 -7.0197,0.55003 -10.51,0.38322 -3.5059,0.7174 -6.9986,-0.50279 -10.4777,-0.67051 -3.4618,-0.33443 -6.9102,-0.34247 -10.3448,-0.50905 -3.4369,-0.17547 -6.8599,-1.51152 -10.2687,-1.67764 -3.3882,-1.34349 -6.7623,0.18375 -10.1221,0.0213 -3.3877,0.34887 -6.7607,-1.28282 -10.1189,-1.44471 -3.3335,-1.11679 -6.6523,-0.54257 -9.9561,-0.69952 -3.3154,-0.38052 -6.6157,-4.21301 -9.9005,-4.36623 -3.2278,-4.05071 -6.4407,0.83288 -9.6382,0.69404 -3.2743,0.98586 -6.5325,-1.07259 -9.7744,-1.20538 -3.216,-0.92476 -6.4159,-1.90888 -9.5994,-2.02989 -3.1759,-1.77161 -6.3355,1.0441 -9.4783,0.9376 -3.1773,1.1706 -6.3376,-0.70027 -9.4804,-0.79754 -3.1246,-0.58697 -6.232,0.26578 -9.3218,0.18025 -3.0991,0.36768 -6.1805,-4.53773 -9.2439,-4.61427 -3.0342,-4.44672 -6.0508,1.34661 -9.0493,1.2937 -3.0383,1.43275 -6.0581,0.52364 -9.0591,0.48636 -2.9932,0.58519 -5.9676,-0.81584 -8.923,-0.84051 -2.9528,-0.77263 -5.8866,2.33749 -8.8009,2.32754 -2.914,2.36914 -5.8085,0.34206 -8.6833,0.33414 -2.8723,0.35298 -5.7248,-0.83618 -8.5573,-0.84414 -2.832,-0.82826 -5.644,0.83202 -8.4356,0.82886 -2.7919,0.84224 -5.5635,0.22631 -8.3142,0.22192 -2.7506,0.2289 -5.4805,-0.0158 -8.1892,-0.023 -2.7087,-0.0127 -5.3962,0.14927 -8.0623,0.13983 -2.6664,0.15535 -5.3114,0.0173 -7.9345,0.004 -2.6231,0.0252 -5.2243,-1.11747 -7.8034,-1.13363 -2.5779,-1.106 -5.1336,0.69195 -7.6668,0.68712 -2.5348,0.71331 -5.0471,-0.80506 -7.5365,-0.81116 -2.4898,-0.80078 -4.9568,-1.95487 -7.4006,-1.94759 -2.4648,-1.94273 -4.906,0.67223 -7.3232,0.73381 -2.3946,0.68796 -4.7657,1.19283 -7.1129,1.27632 -2.3318,1.14036 -4.6401,1.77811 -6.9245,1.83816 -2.3035,1.68516 -4.5827,1.29141 -6.8374,1.25704 -2.3044,1.19112 -4.5831,0.0442 -6.8357,-0.13603 -2.214,0.0294 -4.4028,-0.81862 -6.566,-1.08051 -2.1027,-0.65463 -4.1812,3.30638 -6.2353,3.11177 -2.3672,3.56709 -4.702,-1.63853 -7.0038,-2.80395 -1.7647,-0.89349 -3.51,-2.25445 -5.2357,-2.25445 v 7.82071 z m -30.3669,33.45267 v 8.76728 9.38947 c 1.9978,0.004 4.0219,-1.62411 6.072,-1.62214 2.0501,-1.62858 4.1263,0.003 6.228,0.004 2.1012,4.7e-4 4.228,-0.22888 6.38,-0.2299 2.152,-0.23008 4.3293,3.71299 6.5314,3.71053 2.2044,3.71329 4.4338,-0.4202 6.6877,-0.42443 2.2522,-0.4186 4.5288,0.0253 6.8297,0.0194 2.3012,0.0287 4.6266,-0.96193 6.9758,-0.96954 2.348,-0.95683 4.7199,-0.048 7.1152,-0.0572 2.3964,-0.0412 4.8162,0.45767 7.2592,0.44695 2.4439,0.46608 4.9109,1.73887 7.4008,1.72658 2.4923,1.7488 5.0076,-0.58166 7.5453,-0.59569 2.5337,-0.57018 5.0898,0.28136 7.6681,0.26572 2.5799,0.29454 5.182,0.34728 7.8059,0.32999 2.6242,0.3621 5.2701,0.51582 7.9375,0.49688 2.6679,0.53228 5.3573,-0.58157 8.0679,-0.60221 2.7076,-0.56344 5.4364,0.0843 8.1859,0.0621 2.7512,0.10411 5.5232,0.56804 8.3156,0.54422 2.7939,0.58947 5.6082,-1.25746 8.4426,-1.28293 2.8288,-1.23437 5.6776,-1.05408 8.5461,-1.08097 2.8689,-1.02939 5.7575,-3.0735 8.6654,-3.10172 2.9012,-3.0472 5.8216,3.14599 8.7609,3.11688 2.96,3.17347 5.939,-1.39525 8.9369,-1.4259 2.9826,-1.36643 5.9838,0.8818 9.0032,0.85018 3.0274,0.91165 6.0732,1.04283 9.1369,1.00989 3.0645,1.07392 6.1471,-1.73925 9.2473,-1.77354 3.0899,-1.70685 6.1974,2.6416 9.3221,2.60631 3.1414,2.67504 6.3001,1.45653 9.4759,1.41963 3.1716,1.49134 6.3602,-0.21021 9.5655,-0.24866 3.1987,-0.17406 6.414,0.853 9.6456,0.81308 3.236,0.89057 6.4883,0.89041 9.7566,0.84879 3.2686,0.92957 6.5532,0.95821 9.8534,0.91484 3.3008,0.99896 6.6172,0.57627 9.9488,0.53106 3.3301,0.61874 6.6755,-0.95011 10.0357,-0.99721 3.353,-0.90576 6.7208,0.0608 10.1031,0.012 3.3871,0.10685 6.7887,0.39007 10.2045,0.33955 3.4175,0.43798 6.8492,-0.25579 10.2947,-0.30809 3.4423,-0.20606 6.8984,-0.20406 10.368,-0.25801 3.4697,-0.15265 6.953,1.88345 10.4494,1.82785 3.5078,1.93641 7.0289,-0.0748 10.5628,-0.13252 3.5235,-0.0198 7.0597,0.37013 10.6084,0.31072 3.5512,0.4267 7.1149,-1.37368 10.6908,-1.43504 3.5655,-1.31501 7.1431,-3.51287 10.7325,-3.57571 3.5762,-3.45227 7.164,4.44738 10.7631,4.38371 3.6468,4.50864 7.3051,0.89343 10.9747,0.82708 3.6488,0.95741 7.3087,0.21453 10.9793,0.14663 3.6666,0.27961 7.3439,0.42449 11.0316,0.35471 3.6892,0.49133 7.3887,0.22981 11.0983,0.15801 3.7085,0.29864 7.427,1.01229 11.1552,0.9385 3.7337,1.08296 7.4771,1.94454 11.2298,1.86846 3.76,2.01723 7.5293,0.34479 11.3076,0.26604 3.7677,0.41998 7.5444,0.3485 11.3297,0.26743 3.7855,0.42577 7.5797,-0.0627 11.3822,-0.14638 3.7995,0.0171 7.6073,-0.12468 11.423,-0.21078 3.8152,-0.0423 7.6383,0.47916 11.469,0.3906 3.8356,0.56393 7.6788,1.56977 11.5292,1.47857 3.8599,1.65695 7.7271,-1.96381 11.6012,-2.05808 3.8448,-1.87308 7.6964,-0.31136 11.5546,-0.40727 3.8714,-0.21929 7.7494,-2.68185 11.6336,-2.78036 3.863,-2.58618 7.7322,-0.0578 11.6073,-0.15737 3.8972,0.0388 7.8003,0.69533 11.709,0.59356 3.9155,0.79453 7.8365,-0.0427 11.7627,-0.1464 3.9198,0.0586 7.8448,-0.38022 11.7746,-0.48551 3.9267,-0.27743 7.8581,-1.58401 11.7941,-1.69086 3.9245,-1.47927 7.8535,1.00652 11.7866,0.89877 3.957,1.1118 7.9182,-1.00623 11.8832,-1.11613 3.9462,-0.89802 7.8962,-2.81162 11.8496,-2.92221 3.9357,-2.70233 7.8749,2.52723 11.8171,2.41667 3.9929,2.6357 7.9888,-1.1628 11.9876,-1.27598 3.9639,-1.05041 7.9305,1.70421 11.8995,1.59118 3.9968,1.81519 7.996,0.56852 11.9973,0.45333 3.9908,0.68199 7.9838,-1.2457 11.9784,-1.36212 3.9766,-1.13103 7.9549,2.21172 11.9346,2.09469 4.0145,2.32603 8.0304,0.72039 12.0474,0.60048 4.0028,0.83797 8.0067,-0.26384 12.0113,-0.3854 3.9945,-0.14506 7.9898,-0.65742 11.9854,-0.78063 3.9912,-0.53698 7.9828,-1.93892 11.9743,-2.06372 3.9771,-1.81624 7.9543,-0.57846 11.931,-0.70385 3.9907,-0.45506 7.9811,-0.82341 11.9707,-0.95011 3.9868,-0.69791 4.964,-1.67414 8.9491,-1.80135 3.9742,-1.65122 7.9474,-0.10651 11.9192,-0.23334 3.9897,0.0198 16.1743,-0.29261 20.1608,-0.42 3.9891,0.24973 7.9764,-1.97186 11.9616,-2.0994 3.9625,-1.84369 7.9228,0.81275 11.8808,0.68661 3.9879,0.93894 7.9733,1.01851 11.9559,0.89167 3.9853,1.14566 7.9678,-0.4206 11.9471,-0.54776 3.964,-0.29329 2.7373,-1.85962 6.6947,-1.98639 3.9381,-2.04362 7.8727,0.88245 11.8036,0.75712 3.9637,1.00797 7.9236,2.58326 11.8793,2.45722 3.9751,2.70919 7.9459,-0.47795 11.9121,-0.6056 3.9336,-0.35072 7.8627,-3.40531 11.7869,-3.53268 3.8911,-3.27801 7.7775,-0.002 11.6588,-0.1276 3.9181,0.12336 7.8309,2.42792 11.7382,2.30218 3.9346,2.55405 7.8635,0.63011 11.7864,0.5029 3.9043,0.75706 7.8026,2.65617 11.6947,2.52856 3.9166,2.7815 7.8267,-0.39817 11.7302,-0.52922 3.8698,-0.2699 7.733,-2.3045 11.5893,-2.43675 3.8325,-2.17489 7.6582,1.94381 11.4767,1.81149 3.8689,2.07309 7.7304,1.13101 11.5843,0.99471 3.8461,1.26427 7.6845,0.28925 11.5149,0.15022 3.821,0.42417 7.634,0.2918 11.4386,0.14992 3.8053,0.42894 7.6021,-0.19261 11.3903,-0.33787 3.7819,-0.0521 7.5551,-0.27753 11.3193,-0.42574 3.7628,-0.13398 7.5165,-0.16942 11.2608,-0.32054 3.7456,-0.0227 7.4818,-1.58757 11.2083,-1.74156 3.705,-1.43686 7.4003,-3.0294 11.0858,-3.18397 3.662,-2.876 7.3142,0.33615 10.9563,0.18367 3.6893,0.48833 7.3682,0.70074 11.0363,0.54693 3.6741,0.85529 7.3374,0.51567 10.9896,0.36138 3.6505,0.66975 7.2899,-0.88243 10.9177,-1.03754 3.6073,-0.72772 7.2031,1.12435 10.7873,0.97004 3.6143,1.27728 7.2168,-1.31188 10.8071,-1.469 3.5535,-1.15536 7.0951,-1.51575 10.6243,-1.67133 3.5244,-1.36003 7.0366,-0.57403 10.5361,-0.72783 3.5129,-0.41843 7.0131,1.79499 10.5001,1.64264 3.524,1.94883 7.0345,1.69209 10.5313,1.53743 3.499,1.84567 6.9843,1.17553 10.4555,1.01743 3.4671,1.32891 6.9201,-0.35187 10.3588,-0.51496 3.4145,-0.19527 6.8148,-0.22191 10.2006,-0.38837 3.3872,-0.0621 6.7598,0.0126 10.1175,-0.15803 3.3618,0.17702 6.7086,0.17563 10.0401,5.2e-4 3.3351,0.34435 6.6548,1.28113 9.9589,1.10119 3.3287,1.45294 6.6415,-0.25956 9.9381,-0.44826 3.2677,-0.0801 4.7586,-4.56333 7.994,-4.757 3.2295,-0.2707 8.2034,1.13534 11.4,0.93647 3.1351,-2.77839 6.2542,-4.09038 9.3569,-4.28377 3.0737,-3.8926 6.1314,-0.0479 9.1728,-0.22817 3.125,0.14432 7.4065,4.42789 10.4967,4.25323 3.1218,1.68207 6.2256,0.15369 9.3111,-0.018 3.0615,0.33389 6.105,1.26932 9.13,1.1021 3.0498,1.44001 6.0808,-0.0397 9.0929,-0.21067 2.9884,0.12923 5.958,-2.1601 8.9086,-2.33233 2.9033,-1.98881 5.7882,-0.33103 8.6543,-0.49444 2.9013,-0.16048 4.6095,-2.95463 7.4719,-3.11366 2.869,0.14821 5.7183,-0.80787 8.5476,-0.96229 2.8139,-0.64503 5.6079,-0.10039 8.3818,-0.24581 2.7872,0.0566 5.554,-0.0109 8.3001,-0.15004 2.7483,0.13867 5.4759,0.76319 8.1823,0.62903 2.7227,0.90435 5.424,0.10386 8.1036,-0.0341 2.6697,0.23823 5.3178,-1.65626 7.9441,-1.79865 2.5887,-1.51859 5.1561,0.99949 7.702,0.87133 2.5971,1.1433 5.1717,-1.20244 7.7236,-1.33724 2.5094,-1.07079 4.9967,0.0258 7.4616,-0.0942 2.4874,0.16352 4.9521,2.60145 7.3936,2.488 2.5138,2.72316 5.003,1.3675 7.4674,1.19391 2.4836,1.45908 4.9419,0.16172 7.3745,-0.10066 2.3917,0.30564 4.7585,-0.86748 7.1001,-1.19915 2.2531,-0.62419 4.4828,-2.55814 6.6889,-2.89642 2.0995,-2.22504 4.1775,-0.33951 6.2339,-0.54237 2.188,0.0222 4.3514,-1.85909 6.4898,-1.99404 2.1644,-1.60894 6.3782,-1.02267 8.4912,-0.87446 2.1134,2.15288 9.6996,0.55923 11.7608,0.24411 2.0163,-0.30825 10.8129,1.9319 12.7787,1.9319 -1.9978,0 -16.4937,-0.53763 -18.5438,-0.53925 -2.0506,1.14892 -6.0346,0.38784 -8.1369,0.38451 -2.1011,-1.00528 -4.2278,0.1837 -6.3797,0.17879 -2.1526,0.18624 -3.9155,2.25183 -6.1183,2.24532 -2.2022,-0.44156 -4.8442,-1.56873 -7.0958,-1.57676 -2.2536,1.13454 -4.5318,1.59746 -6.8342,1.58781 -2.3036,1.60469 -4.6315,-1.24608 -6.9833,-1.25748 -2.3472,-1.23726 -4.7182,1.01795 -7.1128,1.00498 -2.3986,1.02852 -4.8207,0.23429 -7.2661,0.21962 -2.444,0.24645 -4.9112,0.87603 -7.4012,0.85969 -2.4916,0.88985 -5.006,-0.56914 -7.543,-0.58723 -2.5336,-0.55365 -5.0896,0.70132 -7.6678,0.68161 -2.5814,0.71853 -5.1849,0.8261 -7.8104,0.80465 -2.6259,0.845 -5.2737,0.008 -7.943,-0.0157 -2.667,0.0282 -5.3554,-0.56907 -8.065,-0.59403 -2.7076,-0.5467 -5.4364,-1.36578 -8.1858,-1.39239 -2.7467,-1.34164 -5.514,0.0531 -8.3017,0.025 -2.7923,0.0789 -5.605,0.84573 -8.4378,0.81613 -2.8357,0.87308 -5.6914,0.0435 -8.567,0.0123 -2.8727,0.0724 -4.5913,3.86936 -7.5031,3.83666 -2.9153,0.96518 -5.8499,-0.89688 -8.8037,-0.93125 -2.9466,-0.86486 -5.9122,0.30969 -8.8964,0.2739 -2.989,0.34318 -5.9967,1.0377 -9.0228,1.00033 -3.0292,1.07275 -6.0768,0.45078 -9.1424,0.41174 -3.0633,0.48741 -6.1446,2.34078 -9.2436,2.30011 -3.1077,2.37885 -7.407,-4.93146 -10.5498,-4.97419 -3.1231,-1.95683 -6.2634,-0.24542 -9.4205,-0.28952 -3.1651,-0.20388 -6.3471,-0.49802 -9.5457,-0.54383 -3.1973,-0.45458 -6.4112,-0.14362 -9.6413,-0.19093 -3.2318,-0.0986 -6.4799,0.15324 -9.7439,0.10443 -3.2654,0.19983 -6.5468,-0.0222 -9.8438,-0.0725 -3.296,0.026 -6.6077,-0.56276 -9.9345,-0.61452 -3.324,-0.51314 -6.6632,-1.17071 -10.0172,-1.22379 -3.3507,-1.11962 -6.7162,-0.007 -10.0961,-0.0609 -3.3862,0.0457 -6.7869,-1.12086 -10.2018,-1.17634 -3.4088,-1.06704 -6.8317,-1.36544 -10.2684,-1.42182 -3.4353,-1.31053 -6.8844,3.22895 -10.347,3.17181 -3.488,3.28449 -6.9897,-0.84827 -10.5046,-0.9071 -3.4923,-0.79097 -6.9976,-0.21196 -10.5157,-0.27154 -3.5217,-0.15411 -7.0562,0.37769 -10.6031,0.31697 -3.5503,0.43673 -7.1131,0.74306 -10.688,0.68115 -3.5772,0.80323 -7.1664,0.50995 -10.7675,0.44676 -3.5998,0.5713 -7.2114,-1.2681 -10.8344,-1.33257 -3.6123,-1.2054 -7.236,3.5458 -10.8707,3.48044 -3.6642,3.60903 -7.3395,-1.58861 -11.0257,-1.65621 -3.6548,-1.52298 -7.3203,-0.97518 -10.996,-1.04358 -3.6794,-0.90891 -7.3691,-0.14375 -11.0688,-0.21341 -3.7049,-0.076 -7.4197,-4.6357 -11.1443,-4.70661 -3.6958,-4.56597 -7.4011,3.74242 -11.1156,3.67176 -3.768,3.81162 -7.5455,-0.10662 -11.332,-0.17932 -3.7621,-0.035 -7.5331,-0.87354 -11.3128,-0.94675 -3.7747,-0.8017 -7.558,-1.45402 -11.3495,-1.52794 -3.7877,-1.38122 -7.5836,0.14502 -11.3875,0.0707 -3.8143,0.2184 -7.6366,1.82886 -11.4664,1.75374 -3.8411,1.90293 -7.6899,-0.1008 -11.5459,-0.17707 -3.8434,-0.0257 -7.6941,1.33558 -11.5516,1.25865 -3.8674,1.41097 -7.7416,1.52293 -11.6225,1.44461 -3.8826,1.59943 -7.7718,-0.1163 -11.6672,-0.19619 -3.8844,-0.0385 -7.775,-0.64649 -11.6714,-0.72763 -3.8926,-0.56748 -7.7911,-0.49457 -11.6951,-0.57694 -3.9049,-0.41418 -7.8154,-0.67626 -11.731,-0.75984 -3.9142,-0.59441 -7.8335,1.37889 -11.7577,1.29432 -3.9393,1.46161 -7.8834,1.82023 -11.832,1.73397 -3.9526,1.90437 -7.9096,0.77999 -11.8709,0.69183 -3.954,0.86561 -7.9122,1.31272 -11.8742,1.22273 -3.9667,1.39964 -7.9372,-0.32302 -11.9112,-0.41544 -3.9614,-0.23376 -2.7387,1.62044 -6.7066,1.52613 -3.9867,2.0223 -7.9766,2.36094 -11.9692,2.26346 -3.9979,2.45424 -7.9987,0.90986 -12.0018,0.80889 -3.9922,1.0061 -6.3156,-2.11205 -10.3122,-2.21629 -3.957,-3.33135 -14.7748,1.74278 -18.7355,1.63715 -4.0167,2.85132 -11.044,-1.50286 -15.0638,-1.61329 -3.9796,-1.50001 -7.9606,0.12861 -11.9426,0.0166 -3.998,0.23616 -4.9882,2.34233 -8.9879,2.22713 -4.0237,2.55653 -8.0482,-3.18159 -12.073,-3.30102 -3.9675,-3.06573 -7.9354,1.79856 -11.9032,1.67849 -4.0187,1.91361 -8.0374,-1.01709 -12.0557,-1.1417 -3.989,-0.89603 -7.9776,1.54591 -11.9655,1.41965 -4.0159,1.66747 -8.0311,1.07308 -12.0453,0.9428 -4.0104,1.19881 -8.0197,-0.39313 -12.0276,-0.52679 -3.9916,-0.26412 -7.9817,-0.80989 -11.9702,-0.94628 -3.9828,-0.67818 -7.9639,-0.86201 -11.9429,-1.00111 -3.9775,-0.72718 -7.9529,-0.18875 -11.9259,-0.33033 -3.9807,-0.0512 -7.9589,-2.5053 -11.9344,-2.6496 -3.9455,-2.36355 -7.8883,-0.10365 -11.828,-0.2482 -3.9688,0.0378 -7.9343,-1.94749 -11.8964,-2.09445 -3.9382,-1.80162 -7.873,-0.15673 -11.804,-0.30328 -3.9531,-0.0117 -7.9023,-1.03659 -11.8474,-1.18443 -3.9336,-0.88898 -7.8631,-0.31847 -11.7881,-0.4659 -3.9339,-0.17139 -7.8633,0.88313 -11.7879,0.73543 -3.9402,1.03035 -7.8755,-0.10715 -11.8056,-0.25591 -3.9178,0.0414 -7.8304,-0.34684 -11.7374,-0.49561 -3.9038,-0.19864 -7.8021,-1.02918 -11.6946,-1.17818 -3.8831,-0.88033 -7.7605,1.11067 -11.6316,0.96219 -3.8992,1.25834 -7.7922,-0.72791 -11.6785,-0.87805 -3.8624,-0.5777 -7.7183,-0.50806 -11.5673,-0.65749 -3.8515,-0.35901 -7.6961,0.55905 -11.5334,0.40954 -3.8517,0.70805 -7.696,-0.24729 -11.5328,-0.3978 -3.8262,-0.097 -7.6448,-0.84094 -11.4554,-0.99139 -3.8023,-0.69066 -7.5966,1.31368 -11.3827,1.16369 -3.8157,1.46273 -7.6229,-0.30283 -11.4215,-0.45493 -3.7771,-0.15124 -7.5455,0.30939 -11.3049,0.15737 -3.7681,0.45994 -7.5271,0.39587 -11.2768,0.24238 -3.7515,0.54765 -7.4936,-0.44855 -11.2259,-0.60362 -3.7204,-0.29521 -7.4311,0.30322 -11.1318,0.14745 -3.7116,0.45679 -7.4132,-1.33386 -11.1043,-1.49166 -3.6665,-1.17728 -7.3226,3.15117 -10.9682,2.99403 -3.7143,3.3048 -7.4176,-1.92669 -11.1095,-2.09047 -3.6155,-1.76495 -7.2201,0.68588 -10.8134,0.52387 -3.6331,0.84374 -7.2546,-1.03258 -10.8643,-1.19885 -3.5822,-0.86868 -7.1527,0.0477 -10.7111,-0.11863 -3.5752,0.21133 -7.1383,-1.88156 -10.6888,-2.05026 -3.5176,-1.71356 -7.0229,-0.3656 -10.5155,-0.53213 -3.5163,-0.19923 -7.0197,0.55003 -10.51,0.38323 -3.5059,0.71739 -6.9986,-0.5028 -10.4777,-0.67052 -3.4618,-0.33443 -6.9102,-0.34247 -10.3449,-0.50905 -3.4368,-0.17547 -6.8598,-1.51152 -10.2687,-1.67764 -3.3881,-1.34349 -6.7622,0.18375 -10.1221,0.0213 -3.3876,0.34887 -6.7607,-1.28282 -10.1188,-1.44471 -3.3335,-1.11679 -6.6524,-0.54257 -9.9561,-0.69951 -3.3155,-0.38052 -6.6157,-4.21302 -9.9005,-4.36624 -3.2278,-4.0507 -6.4407,0.83288 -9.6382,0.69404 -3.2743,0.98586 -6.5325,-1.07259 -9.7744,-1.20538 -3.216,-0.92476 -6.416,-1.90887 -9.5994,-2.02989 -3.176,-1.77161 -6.3355,1.0441 -9.4783,0.9376 -3.1774,1.1706 -6.3376,-0.70027 -9.4804,-0.79754 -3.1246,-0.58697 -6.232,0.26579 -9.3218,0.18026 -3.0991,0.36767 -6.1805,-4.53774 -9.2439,-4.61428 -3.0342,-4.44672 -6.0508,1.34661 -9.0493,1.2937 -3.0383,1.43275 -6.0581,0.52364 -9.0591,0.48636 -2.9932,0.58519 -5.9676,-0.81583 -8.923,-0.8405 -2.9528,-0.77264 -5.8866,2.33748 -8.8009,2.32753 -2.914,2.36915 -5.8085,0.34206 -8.6833,0.33414 -2.8723,0.35298 -5.7248,-0.83618 -8.5573,-0.84413 -2.832,-0.82827 -5.644,0.83201 -8.4356,0.82886 -2.792,0.84223 -5.5635,0.2263 -8.3142,0.22192 -2.7506,0.22889 -5.4805,-0.0158 -8.1893,-0.023 -2.7086,-0.0127 -5.3962,0.14927 -8.0623,0.13983 -2.6664,0.15535 -5.3113,0.0173 -7.9345,0.004 -2.623,0.0252 -5.2242,-1.11747 -7.8033,-1.13363 -2.5779,-1.10599 -5.1336,0.69195 -7.6668,0.68713 -2.5348,0.71331 -5.0471,-0.80506 -7.5365,-0.81117 -2.4899,-0.80078 -4.9568,-1.95487 -7.4007,-1.94759 -2.4647,-1.94273 -4.9059,0.67223 -7.3231,0.73381 -2.3946,0.68796 -4.7657,1.19284 -7.1129,1.27632 -2.3319,1.14037 -4.6401,1.77811 -6.9245,1.83816 -2.3035,1.68516 -4.5828,1.29141 -6.8374,1.25704 -2.3044,1.19113 -4.5831,0.0442 -6.8357,-0.13603 -2.214,0.0294 -4.4028,-0.81862 -6.566,-1.08051 -2.1027,-0.65463 -4.1812,3.30638 -6.2353,3.11177 -2.3673,3.5671 -4.702,-1.63852 -7.0038,-2.80395 -1.7647,-0.89349 -3.51,-2.25445 -5.2357,-2.25445 v 7.82071 z m 30.3669,33.45268 v 8.76727 9.38947 c 1.9978,0.004 4.0219,-1.62411 6.072,-1.62214 2.0502,-1.62858 4.1263,0.003 6.228,0.004 2.1012,4.6e-4 4.228,-0.22889 6.3801,-0.22991 2.152,-0.23008 4.3292,3.713 6.5313,3.71053 2.2045,3.71329 4.4338,-0.42019 6.6877,-0.42443 2.2522,-0.4186 4.5289,0.0253 6.8297,0.0194 2.3012,0.0287 4.6266,-0.96193 6.9759,-0.96955 2.348,-0.95683 4.7198,-0.048 7.1151,-0.0572 2.3964,-0.0412 4.8162,0.45767 7.2592,0.44695 2.4439,0.46608 4.9109,1.73887 7.4008,1.72658 2.4923,1.7488 5.0076,-0.58166 7.5454,-0.59568 2.5336,-0.57019 5.0897,0.28135 7.668,0.26571 2.58,0.29454 5.1821,0.34728 7.806,0.32999 2.6241,0.3621 5.27,0.51582 7.9374,0.49688 2.668,0.53229 5.3574,-0.58157 8.0679,-0.60221 2.7077,-0.56343 5.4364,0.0843 8.1859,0.0621 2.7513,0.10411 5.5233,0.56804 8.3157,0.54422 2.7938,0.58947 5.6081,-1.25745 8.4425,-1.28292 2.8288,-1.23438 5.6776,-1.05409 8.5461,-1.08098 2.8689,-1.02939 5.7575,-3.07349 8.6654,-3.10171 2.9012,-3.0472 5.8216,3.14599 8.761,3.11687 2.9599,3.17347 5.939,-1.39525 8.9369,-1.4259 2.9825,-1.36643 5.9837,0.88181 9.0031,0.85018 3.0274,0.91165 6.0732,1.04283 9.137,1.00989 3.0645,1.07392 6.147,-1.73924 9.2472,-1.77354 3.0899,-1.70684 6.1974,2.6416 9.3221,2.60632 3.1414,2.67503 6.3001,1.45653 9.476,1.41962 3.1716,1.49134 6.3602,-0.2102 9.5654,-0.24866 3.1987,-0.17406 6.414,0.85301 9.6456,0.81309 3.236,0.89056 6.4883,0.8904 9.7566,0.84879 3.2687,0.92956 6.5533,0.9582 9.8535,0.91484 3.3007,0.99896 6.6171,0.57627 9.9487,0.53105 3.3301,0.61875 6.6755,-0.95011 10.0357,-0.99721 3.353,-0.90575 6.7208,0.0608 10.1031,0.0121 3.3871,0.10684 6.7887,0.39006 10.2045,0.33954 3.4175,0.43798 6.8492,-0.25578 10.2948,-0.30809 3.4422,-0.20606 6.8983,-0.20406 10.3679,-0.25801 3.4697,-0.15265 6.953,1.88345 10.4494,1.82785 3.5078,1.93641 7.0289,-0.0748 10.5628,-0.13252 3.5235,-0.0198 7.0597,0.37013 10.6084,0.31073 3.5512,0.42669 7.1149,-1.37369 10.6908,-1.43505 3.5655,-1.315 7.1432,-3.51287 10.7325,-3.57571 3.5762,-3.45226 7.164,4.44739 10.7632,4.38371 3.6467,4.50864 7.305,0.89343 10.9746,0.82709 3.6488,0.95741 7.3087,0.21453 10.9793,0.14662 3.6666,0.27962 7.3439,0.42449 11.0316,0.35471 3.6892,0.49133 7.3888,0.22981 11.0984,0.15801 3.7084,0.29865 7.4269,1.01229 11.1551,0.9385 3.7337,1.08296 7.4771,1.94454 11.2299,1.86847 3.7599,2.01722 7.5292,0.34478 11.3076,0.26603 3.7676,0.41998 7.5443,0.3485 11.3296,0.26744 3.7856,0.42576 7.5797,-0.0627 11.3822,-0.14639 3.7995,0.0171 7.6073,-0.12467 11.423,-0.21078 3.8152,-0.0423 7.6383,0.47916 11.4691,0.39061 3.8355,0.56392 7.6787,1.56976 11.5291,1.47856 3.8599,1.65696 7.7271,-1.96381 11.6012,-2.05808 3.8448,-1.87307 7.6964,-0.31136 11.5546,-0.40727 3.8714,-0.21929 7.7494,-2.68185 11.6336,-2.78035 3.863,-2.58619 7.7322,-0.0578 11.6073,-0.15738 3.8972,0.0388 7.8004,0.69534 11.709,0.59356 3.9155,0.79453 7.8365,-0.0427 11.7627,-0.1464 3.9198,0.0586 7.8448,-0.38021 11.7746,-0.48551 3.9267,-0.27743 7.8582,-1.584 11.7941,-1.69085 3.9246,-1.47928 7.8535,1.00651 11.7866,0.89876 3.957,1.1118 7.9182,-1.00623 11.8832,-1.11613 3.9462,-0.89802 7.8962,-2.81161 11.8496,-2.92221 3.9357,-2.70233 7.8749,2.52724 11.8171,2.41667 3.9929,2.6357 7.9889,-1.1628 11.9877,-1.27597 3.9638,-1.05042 7.9304,1.70421 11.8994,1.59117 3.9968,1.81519 7.996,0.56853 11.9973,0.45333 3.9908,0.68199 7.9838,-1.2457 11.9784,-1.36212 3.9766,-1.13103 7.9549,2.21172 11.9346,2.09469 4.0145,2.32604 8.0304,0.7204 12.0474,0.60048 4.0028,0.83797 8.0067,-0.26384 12.0113,-0.3854 3.9946,-0.14506 7.9898,-0.65742 11.9855,-0.78063 3.9911,-0.53698 7.9827,-1.93892 11.9742,-2.06371 3.9771,-1.81624 7.9543,-0.57846 11.9311,-0.70386 3.9907,-0.45506 7.981,-0.82341 11.9707,-0.95011 3.9867,-0.6979 7.9728,-1.77789 11.9578,-1.9051 3.9742,-1.65121 7.9474,-0.1065 11.9193,-0.23334 3.9896,0.0198 7.9778,0.1224 11.9643,-0.005 3.9891,0.24974 7.9764,-1.97186 11.9617,-2.0994 3.9624,-1.84369 7.9227,0.81275 11.8807,0.68661 3.9879,0.93894 7.9733,1.01851 11.9559,0.89167 3.9853,1.14567 7.9678,-0.4206 11.9471,-0.54775 3.964,-0.29329 7.9249,-2.17088 11.8823,-2.29764 3.9381,-2.04363 7.8727,0.88244 11.8036,0.75712 3.9637,1.00796 7.9236,2.58325 11.8793,2.45721 3.9751,2.70919 7.9459,-0.47795 11.9121,-0.6056 3.9336,-0.35072 7.8627,-3.40531 11.7869,-3.53268 3.8911,-3.278 7.7775,-0.002 11.6588,-0.1276 3.9181,0.12336 7.8309,2.42792 11.7383,2.30218 3.9345,2.55405 7.8634,0.63012 11.7863,0.5029 3.9043,0.75706 7.8027,2.65617 11.6947,2.52856 3.9166,2.7815 7.8268,-0.39817 11.7302,-0.52922 3.8698,-0.2699 7.733,-2.3045 11.5893,-2.43675 3.8325,-2.17489 7.6582,1.94381 11.4767,1.8115 3.8689,2.07308 7.7304,1.131 11.5843,0.9947 3.8461,1.26427 7.6845,0.28926 11.5149,0.15022 3.821,0.42417 7.634,0.2918 11.4386,0.14993 3.8053,0.42893 7.6021,-0.19261 11.3903,-0.33788 3.7819,-0.0521 7.5552,-0.27752 11.3194,-0.42574 3.7627,-0.13397 7.5164,-0.16942 11.2608,-0.32054 3.7455,-0.0227 7.4817,-1.58756 11.2082,-1.74156 3.705,-1.43685 7.4004,-3.0294 11.0858,-3.18397 3.662,-2.876 7.3143,0.33615 10.9563,0.18367 3.6893,0.48834 7.3682,0.70075 11.0363,0.54693 3.6741,0.85529 7.3375,0.51568 10.9896,0.36138 3.6505,0.66975 7.2899,-0.88243 10.9178,-1.03754 3.6072,-0.72772 7.203,1.12435 10.7872,0.97004 3.6144,1.27728 7.2169,-1.31188 10.8071,-1.469 3.5535,-1.15535 7.0951,-1.51575 10.6243,-1.67133 3.5245,-1.36003 7.0366,-0.57403 10.5361,-0.72783 3.5129,-0.41843 7.0131,1.795 10.5002,1.64265 3.5239,1.94882 7.0344,1.69209 10.5312,1.53743 3.499,1.84566 6.9843,1.17552 10.4555,1.01742 3.4671,1.32891 6.9202,-0.35187 10.3588,-0.51496 3.4145,-0.19527 6.8148,-0.22191 10.2006,-0.38837 3.3872,-0.0621 6.7598,0.0126 10.1176,-0.15803 3.3617,0.17702 6.7085,0.17563 10.04,5.2e-4 3.3351,0.34435 6.6548,1.28113 9.9589,1.1012 3.3287,1.45293 6.6416,-0.25957 9.9381,-0.44827 3.2677,-0.0801 6.5193,-0.45498 9.7547,-0.64866 3.2295,-0.27069 6.4427,-2.973 9.6394,-3.17187 3.135,-2.77839 6.2541,-4.09038 9.3568,-4.28377 3.0737,-3.8926 6.1314,-0.0479 9.1728,-0.22817 3.125,0.14432 6.2328,1.49336 9.3229,1.3187 3.1218,1.68208 6.2256,0.1537 9.3112,-0.018 3.0614,0.33389 6.1049,1.26932 9.1299,1.10211 3.0498,1.44 6.0809,-0.0397 9.0929,-0.21068 2.9884,0.12923 5.958,-2.16009 8.9086,-2.33233 2.9033,-1.98881 5.7882,-0.33102 8.6543,-0.49444 2.9013,-0.16048 5.7833,-0.0201 8.6457,-0.17913 2.869,0.14821 5.7183,-0.80787 8.5476,-0.96228 2.8139,-0.64503 5.6079,-0.10039 8.3819,-0.24582 2.7871,0.0566 5.5539,-0.0109 8.3,-0.15004 2.7483,0.13868 5.4759,0.76319 8.1823,0.62904 2.7227,0.90435 5.424,0.10385 8.1036,-0.0342 2.6697,0.23823 5.3178,-1.65626 7.9441,-1.79865 2.5887,-1.51859 5.1561,0.9995 7.702,0.87133 2.5971,1.1433 5.1718,-1.20244 7.7236,-1.33724 2.5094,-1.07078 4.9967,0.0258 7.4616,-0.0941 2.4875,0.16351 4.9521,2.60144 7.3936,2.48799 2.5138,2.72317 5.0031,1.3675 7.4674,1.19391 2.4836,1.45908 4.9419,0.16173 7.3745,-0.10065 2.3917,0.30563 4.7585,-0.86748 7.1001,-1.19916 2.2531,-0.62419 4.4828,-2.55814 6.6889,-2.89642 2.0995,-2.22504 4.1776,-0.3395 6.2339,-0.54236 2.188,0.0222 4.3514,-1.8591 6.4898,-1.99405 2.1644,-1.60894 4.5234,0.28357 6.6363,0.43178 2.3702,0.48386 4.4759,0.76781 6.5371,0.4527 2.0164,-0.30825 3.5124,0.12362 5.4781,0.12362 -1.9978,0 -4.0219,1.14973 -6.072,1.1481 -2.0506,1.14892 -4.1272,-1.00606 -6.2294,-1.00939 -2.1011,-1.00528 -4.2278,0.18371 -6.3798,0.17879 -2.1526,0.18624 -4.3305,-0.4457 -6.5333,-0.45221 -2.2022,-0.44156 -4.4292,1.1288 -6.6808,1.12077 -2.2536,1.13454 -4.5318,1.59746 -6.8342,1.58781 -2.3036,1.60469 -4.6315,-1.24608 -6.9832,-1.25748 -2.3473,-1.23726 -4.7183,1.01796 -7.1129,1.00499 -2.3985,1.02851 -4.8207,0.23428 -7.2661,0.21961 -2.444,0.24645 -4.9111,0.87603 -7.4012,0.8597 -2.4916,0.88984 -5.006,-0.56915 -7.543,-0.58724 -2.5336,-0.55364 -5.0896,0.70133 -7.6677,0.68161 -2.5815,0.71854 -5.185,0.82611 -7.8104,0.80465 -2.626,0.845 -5.2738,0.008 -7.9431,-0.0157 -2.667,0.0282 -5.3554,-0.56906 -8.065,-0.59402 -2.7076,-0.54671 -5.4364,-1.36579 -8.1858,-1.3924 -2.7467,-1.34164 -5.514,0.0531 -8.3016,0.025 -2.7924,0.0789 -5.6051,0.84573 -8.4379,0.81613 -2.8357,0.87308 -5.6914,0.0435 -8.567,0.0123 -2.8727,0.0724 -5.7651,0.93483 -8.6769,0.90213 -2.9152,0.96518 -5.8499,-0.89687 -8.8037,-0.93125 -2.9466,-0.86486 -5.9122,0.30969 -8.8964,0.2739 -2.989,0.34318 -5.9967,1.0377 -9.0228,1.00033 -3.0292,1.07276 -6.0768,0.45078 -9.1424,0.41174 -3.0633,0.48742 -6.1446,2.34078 -9.2436,2.30011 -3.1077,2.37886 -6.2331,-1.99693 -9.376,-2.03966 -3.1231,-1.95683 -6.2634,-0.24541 -9.4205,-0.28952 -3.1651,-0.20388 -6.3471,-0.49802 -9.5457,-0.54383 -3.1973,-0.45458 -6.4112,-0.14362 -9.6413,-0.19093 -3.2318,-0.0986 -6.4799,0.15325 -9.7438,0.10444 -3.2655,0.19982 -6.5469,-0.0222 -9.8438,-0.0725 -3.2961,0.026 -6.6077,-0.56276 -9.9346,-0.61452 -3.324,-0.51314 -6.6631,-1.17071 -10.0172,-1.22379 -3.3506,-1.11961 -6.7161,-0.007 -10.0961,-0.0609 -3.3862,0.0457 -6.7869,-1.12086 -10.2018,-1.17634 -3.4088,-1.06703 -6.8317,-1.36544 -10.2684,-1.42181 -3.4353,-1.31053 -6.8844,3.22894 -10.3469,3.17181 -3.4881,3.28448 -6.9898,-0.84827 -10.5047,-0.90711 -3.4923,-0.79097 -6.9976,-0.21196 -10.5157,-0.27153 -3.5217,-0.15412 -7.0562,0.37768 -10.6031,0.31696 -3.5503,0.43673 -7.1131,0.74306 -10.688,0.68115 -3.5771,0.80323 -7.1664,0.50995 -10.7675,0.44677 -3.5998,0.57129 -7.2113,-1.26811 -10.8343,-1.33258 -3.6124,-1.2054 -7.2361,3.54581 -10.8708,3.48044 -3.6642,3.60903 -7.3395,-1.58861 -11.0257,-1.6562 -3.6548,-1.52299 -7.3203,-0.97519 -10.996,-1.04359 -3.6794,-0.90891 -7.3691,-0.14375 -11.0688,-0.2134 -3.7048,-0.076 -7.4197,-4.6357 -11.1443,-4.70662 -3.6958,-4.56597 -7.4011,3.74242 -11.1156,3.67176 -3.768,3.81162 -7.5454,-0.10662 -11.332,-0.17932 -3.7621,-0.035 -7.5331,-0.87354 -11.3128,-0.94675 -3.7747,-0.80169 -7.558,-1.45402 -11.3495,-1.52794 -3.7877,-1.38121 -7.5836,0.14502 -11.3875,0.0707 -3.8143,0.2184 -7.6365,1.82886 -11.4664,1.75374 -3.8411,1.90294 -7.6899,-0.10079 -11.5459,-0.17707 -3.8434,-0.0257 -7.694,1.33559 -11.5516,1.25865 -3.8673,1.41097 -7.7416,1.52293 -11.6225,1.44461 -3.8826,1.59943 -7.7718,-0.1163 -11.6672,-0.19619 -3.8844,-0.0385 -7.7749,-0.64649 -11.6714,-0.72762 -3.8926,-0.56748 -7.7911,-0.49458 -11.6951,-0.57695 -3.9049,-0.41418 -7.8154,-0.67625 -11.731,-0.75984 -3.9142,-0.59441 -7.8335,1.37889 -11.7577,1.29432 -3.9393,1.46161 -7.8834,1.82023 -11.832,1.73397 -3.9526,1.90438 -7.9096,0.77999 -11.8708,0.69183 -3.9541,0.86561 -7.9123,1.31272 -11.8743,1.22273 -3.9667,1.39964 -7.9372,-0.32302 -11.9112,-0.41544 -3.9614,-0.23376 -7.9262,1.9317 -11.8942,1.83738 -3.9867,2.0223 -7.9766,2.36094 -11.9692,2.26346 -3.9979,2.45424 -7.9987,0.90986 -12.0018,0.8089 -3.9922,1.00609 -7.9868,-3.43133 -11.9834,-3.53557 -3.957,-3.33135 -7.916,2.7508 -11.8766,2.64518 -4.0168,2.85131 -8.0353,-1.60662 -12.0551,-1.71705 -3.9796,-1.50001 -7.9606,0.12861 -11.9426,0.0166 -3.998,0.23616 -7.997,2.44609 -11.9967,2.33088 -4.0237,2.55653 -8.0482,-3.18159 -12.073,-3.30102 -3.9675,-3.06573 -7.9354,1.79856 -11.9032,1.67849 -4.0187,1.91361 -8.0374,-1.01709 -12.0557,-1.1417 -3.989,-0.89603 -7.9776,1.54592 -11.9655,1.41966 -4.0159,1.66746 -8.0311,1.07308 -12.0453,0.94279 -4.0103,1.19882 -8.0197,-0.39312 -12.0276,-0.52678 -3.9915,-0.26413 -7.9817,-0.8099 -11.9701,-0.94628 -3.9829,-0.67819 -7.964,-0.86202 -11.943,-1.00112 -3.9775,-0.72718 -7.9529,-0.18875 -11.9259,-0.33033 -3.9807,-0.0512 -7.9589,-2.5053 -11.9343,-2.64959 -3.9456,-2.36355 -7.8884,-0.10365 -11.8281,-0.24821 -3.9687,0.0378 -7.9343,-1.94749 -11.8964,-2.09445 -3.9382,-1.80162 -7.873,-0.15673 -11.804,-0.30328 -3.953,-0.0117 -7.9023,-1.03658 -11.8474,-1.18442 -3.9336,-0.88899 -7.8631,-0.31848 -11.7881,-0.46591 -3.9339,-0.17139 -7.8633,0.88313 -11.7878,0.73543 -3.9403,1.03036 -7.8756,-0.10715 -11.8057,-0.25591 -3.9178,0.0414 -7.8304,-0.34684 -11.7374,-0.49561 -3.9038,-0.19863 -7.8021,-1.02918 -11.6946,-1.17818 -3.8831,-0.88033 -7.7604,1.11068 -11.6316,0.96219 -3.8992,1.25834 -7.7922,-0.72791 -11.6785,-0.87805 -3.8624,-0.57769 -7.7183,-0.50805 -11.5673,-0.65749 -3.8515,-0.359 -7.696,0.55905 -11.5334,0.40954 -3.8517,0.70805 -7.696,-0.24729 -11.5327,-0.3978 -3.8262,-0.097 -7.6448,-0.84094 -11.4555,-0.99139 -3.8022,-0.69066 -7.5966,1.31368 -11.3827,1.16369 -3.8156,1.46273 -7.6229,-0.30283 -11.4214,-0.45493 -3.7771,-0.15124 -7.5456,0.30939 -11.305,0.15737 -3.7681,0.45994 -7.5271,0.39587 -11.2768,0.24239 -3.7515,0.54764 -7.4936,-0.44855 -11.2259,-0.60363 -3.7204,-0.29521 -7.4311,0.30323 -11.1318,0.14745 -3.7116,0.4568 -7.4131,-1.33385 -11.1043,-1.49165 -3.6664,-1.17729 -7.3226,3.15117 -10.9682,2.99403 -3.7143,3.30479 -7.4176,-1.92669 -11.1095,-2.09048 -3.6155,-1.76495 -7.2201,0.68588 -10.8134,0.52387 -3.6331,0.84374 -7.2546,-1.03258 -10.8643,-1.19885 -3.5822,-0.86867 -7.1527,0.0477 -10.7111,-0.11863 -3.5752,0.21133 -7.1382,-1.88156 -10.6888,-2.05026 -3.5175,-1.71355 -7.0228,-0.3656 -10.5155,-0.53212 -3.5162,-0.19924 -7.0197,0.55003 -10.51,0.38322 -3.5059,0.7174 -6.9986,-0.50279 -10.4777,-0.67052 -3.4618,-0.33443 -6.9102,-0.34247 -10.3448,-0.50905 -3.4369,-0.17547 -6.8599,-1.51152 -10.2687,-1.67764 -3.3882,-1.34349 -6.7623,0.18376 -10.1221,0.0213 -3.3877,0.34887 -6.7607,-1.28281 -10.1189,-1.44471 -3.3335,-1.11679 -6.6523,-0.54257 -9.9561,-0.69951 -3.3154,-0.38052 -6.6157,-4.21301 -9.9005,-4.36623 -3.2278,-4.05071 -6.4407,0.83287 -9.6382,0.69404 -3.2743,0.98585 -6.5325,-1.07259 -9.7744,-1.20539 -3.216,-0.92476 -6.4159,-1.90887 -9.5994,-2.02989 -3.1759,-1.77161 -6.3355,1.0441 -9.4783,0.93761 -3.1773,1.17059 -6.3376,-0.70028 -9.4804,-0.79755 -3.1246,-0.58697 -6.232,0.26579 -9.3218,0.18026 -3.0991,0.36767 -6.1805,-4.53774 -9.2439,-4.61428 -3.0342,-4.44672 -6.0508,1.34662 -9.0493,1.29371 -3.0383,1.43274 -6.0581,0.52363 -9.0591,0.48635 -2.9932,0.5852 -5.9676,-0.81583 -8.923,-0.8405 -2.9528,-0.77263 -5.8866,2.33748 -8.8009,2.32754 -2.914,2.36914 -5.8085,0.34206 -8.6833,0.33413 -2.8723,0.35299 -5.7248,-0.83618 -8.5573,-0.84413 -2.832,-0.82827 -5.644,0.83202 -8.4356,0.82886 -2.7919,0.84224 -5.5635,0.2263 -8.3142,0.22192 -2.7506,0.22889 -5.4805,-0.0158 -8.1892,-0.023 -2.7087,-0.0127 -5.3962,0.14927 -8.0623,0.13982 -2.6664,0.15536 -5.3114,0.0173 -7.9345,0.004 -2.6231,0.0252 -5.2243,-1.11747 -7.8034,-1.13364 -2.5779,-1.10599 -5.1336,0.69195 -7.6668,0.68713 -2.5348,0.71331 -5.0471,-0.80506 -7.5365,-0.81116 -2.4898,-0.80078 -4.9568,-1.95488 -7.4006,-1.9476 -2.4648,-1.94273 -4.906,0.67224 -7.3232,0.73382 -2.3946,0.68795 -4.7657,1.19283 -7.1129,1.27631 -2.3318,1.14037 -4.6401,1.77811 -6.9245,1.83816 -2.3035,1.68516 -4.5827,1.29141 -6.8374,1.25704 -2.3044,1.19113 -4.5831,0.0442 -6.8357,-0.13602 -2.214,0.0294 -4.4028,-0.81863 -6.566,-1.08051 -2.1027,-0.65464 -4.1812,3.30638 -6.2353,3.11176 -2.3672,3.5671 -4.702,-1.63852 -7.0038,-2.80395 -1.7647,-0.89349 -3.51,-2.25445 -5.2357,-2.25445 v 7.82071 z"
         id="use22"
         inkscape:linked-fill="path21-3"
         transform="matrix(0.34459435,0,0,0.34459435,-622.50938,259.6597)"
         clip-path="url(#clipPath51-5-9)"
         sodipodi:nodetypes="ccccsccccccccccccccccccccccccccccccccccccccccccccccccccccccccccccccccccccccccccccccccccccccccccccccccccccccccccccccccccccccccccccccccccccccccccccccccccccscccccccccccccccccccccccccccccccccccccccccccccccccccccccccccccccccccccccccccccccccccccccccccccccccccccscccccccccccccccccccccccccccccccccccccccccccccccccscccccccsccccccccccccccccccccccccccccccccccccccccccccccccccccccccccccccccccccccccccccccccccccccccccccccccccccccccccccccccccccccccccccccccccccccccccccccccccccscccccccccccccccccccccccccccccccccccccccccccccccccccccccccccccccccccccccccccccccccccccccccccccccccccccscccccccccccccccccccccccccccccccccccccccccccccccccscccccccsccccccccccccccccccccccccccccccccccccccccccccccccccccccccccccccccccccccccccccccccccccccccccccccccccccccccccccccccccccccccccccccccccccccccccccccccccccscccccccccccccccccccccccccccccccccccccccccccccccccccccccccccccccccccccccccccccccccccccccccccccccccccccscccccccccccccccccccccccccccccccccccccccccccccccccsccc" /></pattern><clipPath
       clipPathUnits="userSpaceOnUse"
       id="clipPath51-5-9"><path
         id="path7-8-3"
         style="stroke-width:0.0999999;stroke-linecap:square;paint-order:markers fill stroke;stop-color:#000000"
         d="M 1806.4991,-753.5228 H 3443.7637 V -686.61747 H 1806.4991 Z" /></clipPath><pattern
       inkscape:collect="always"
       xlink:href="#rain-2"
       preserveAspectRatio="xMidYMid"
       id="pattern310"
       patternTransform="matrix(0.3,0,0,0.3,-690.96318,412.85848)"
       x="0"
       y="0" /><pattern
       patternUnits="userSpaceOnUse"
       width="130"
       height="100"
       patternTransform="translate(230,45) scale(0.3)"
       preserveAspectRatio="xMidYMid"
       style="fill:#000000"
       id="rain-2"
       inkscape:label="Regentropfen 2"
       inkscape:collect="always"
       inkscape:isstock="true"><path
         id="path14-9"
         style="fill-rule:nonzero;stroke-width:4.8561;stroke-linecap:square;paint-order:stroke markers fill;stop-color:#000000"
         d="M 40,0 C 33.36247,0 27.49731,3.246995 23.85938,8.224609 L 0,40 H 40 C 51.04568,40 60,31.045679 60,20 60,8.95432 51.04568,0 40,0 Z m 65,0 C 98.36247,0 92.49731,3.246995 88.84766,8.203125 L 65,40 h 40 c 11.04568,0 20,-8.954321 20,-20 C 125,8.95432 116.04568,0 105,0 Z M 0,50 V 90 C 11.04567,90 20,81.04567 20,70 20,58.95433 11.04567,50 0,50 Z m 65,0 c -6.63851,0 -12.50476,3.247697 -16.14258,8.22656 L 25,90 H 65 C 76.04568,90 85,81.04568 85,70 85,58.95432 76.04568,50 65,50 Z m 65,0 c -6.63474,0 -12.5121,3.232969 -16.15039,8.20703 L 90,90 h 40 z"
         sodipodi:nodetypes="sccssssccsssccscsccsssccccc" /><path
         style="opacity:1;fill-rule:nonzero;stroke-width:4.8561;stroke-linecap:square;paint-order:stroke markers fill;stop-color:#000000"
         d="m 125,100 h 5"
         id="path310" /></pattern><pattern
       inkscape:collect="always"
       xlink:href="#pattern36-8"
       preserveAspectRatio="xMidYMid"
       id="pattern333"
       patternTransform="translate(94.036822,837.85848)"
       x="0"
       y="0" /><pattern
       patternUnits="userSpaceOnUse"
       width="30"
       height="20"
       patternTransform="translate(1015,470)"
       preserveAspectRatio="xMidYMid"
       style="fill:#000000"
       id="pattern36-8"
       inkscape:label="Pfeile"
       inkscape:collect="always"
       inkscape:isstock="true"><path
         style="opacity:1;stroke:none;stroke-width:1;stroke-linecap:butt;stroke-dasharray:none;paint-order:stroke markers fill;stop-color:#000000"
         d="M 5,0 0,5 5,10 H 15 L 10,5 15,0 Z"
         id="path34-41" /><path
         style="stroke:none;stroke-width:1;stroke-linecap:butt;stroke-dasharray:none;paint-order:stroke markers fill;stop-color:#000000"
         d="m 25,20 5,-5 -5,-5 H 15 l 5,5 -5,5 z"
         id="path34-5" /></pattern><pattern
       inkscape:collect="always"
       xlink:href="#ticks"
       preserveAspectRatio="xMidYMid"
       id="pattern343"
       patternTransform="translate(-920.96318,367.85848)"
       x="0"
       y="0" /><pattern
       patternUnits="userSpaceOnUse"
       width="60"
       height="60"
       preserveAspectRatio="xMidYMid"
       style="fill:#000000"
       id="ticks"
       inkscape:stockid="Ticks"
       inkscape:collect="always"
       inkscape:isstock="true"
       inkscape:label="Streusel"><path
         id="path342"
         d="M 0,0 H 10 V 50 H 0 Z M 79.142136,3.7867966 86.213203,10.857864 50.857864,46.213203 43.786797,39.142136 Z M 150,20 V 30 H 100 V 20 Z m 56.2132,19.142136 -7.07106,7.071067 -35.35534,-35.355339 7.07106,-7.0710674 z M 250,50 H 240 V 0 h 10 z M 19.142136,63.786797 26.213203,70.857864 -9.1421356,106.2132 -16.213203,99.142136 Z M 90,80 V 90 H 40 V 80 Z m 56.2132,19.142136 -7.07106,7.071064 -35.35534,-35.355336 7.07106,-7.071067 z M 190,110 H 180 V 60 h 10 z m 40.85786,-3.7868 -7.07106,-7.071064 35.35534,-35.355339 7.07106,7.071067 z M 30,140 v 10 h -50 v -10 z m 56.213203,19.14214 -7.071067,7.07106 -35.355339,-35.35534 7.071067,-7.07106 z M 130,170 h -10 v -50 h 10 z m 40.85786,-3.7868 -7.07106,-7.07106 35.35534,-35.35534 7.07106,7.07106 z M 220,150 v -10 h 50 v 10 z m -193.786797,69.14214 -7.071067,7.07106 -35.355339,-35.35534 7.0710674,-7.07106 z M 70,230 H 60 v -50 h 10 z m 40.85786,-3.7868 -7.07106,-7.07106 35.35534,-35.35534 7.07106,7.07106 z M 160,210 v -10 h 50 v 10 z m 63.7868,-19.14214 7.07106,-7.07106 35.35534,35.35534 -7.07106,7.07106 z M 10,290 H 0 v -50 h 10 z m 40.857864,-3.7868 -7.071067,-7.07106 35.355339,-35.35534 7.071067,7.07106 z M 100,270 v -10 h 50 v 10 z m 63.7868,-19.14214 7.07106,-7.07106 35.35534,35.35534 -7.07106,7.07106 z M 240,240 h 10 v 50 h -10 z"
         style="stroke-width:10;stroke-linecap:square;paint-order:markers fill stroke;stop-color:#000000"
         transform="scale(0.25)" /></pattern><pattern
       inkscape:collect="always"
       xlink:href="#Wavy"
       id="pattern351"
       patternTransform="translate(-920.96318,367.85848)"
       x="0"
       y="0"
       preserveAspectRatio="none" /><pattern
       inkscape:collect="always"
       patternUnits="userSpaceOnUse"
       width="30.066020"
       height="5.1805778"
       id="Wavy"
       inkscape:stockid="Wavy"
       inkscape:isstock="true"
       inkscape:label="Wellig">
      <path
   style="stroke:none"
   d="M 7.597,0.061 C 5.079,-0.187 2.656,0.302 -0.01,1.788 L -0.01,3.061 C 2.773,1.431 5.173,1.052 7.472,1.280 C 9.770,1.508 11.969,2.361 14.253,3.218 C 18.820,4.931 23.804,6.676 30.066,3.061 L 30.062,1.788 C 23.622,5.497 19.246,3.770 14.691,2.061 C 12.413,1.207 10.115,0.311 7.597,0.061 z "
   id="path786" />
    </pattern><pattern
       inkscape:collect="always"
       xlink:href="#Strips1_4"
       preserveAspectRatio="xMidYMid"
       id="pattern353"
       patternTransform="matrix(2,0,0,2,-1004.3619,221.03673)" /><pattern
       inkscape:collect="always"
       patternUnits="userSpaceOnUse"
       width="5"
       height="1"
       patternTransform="translate(0,0) scale(2,2)"
       preserveAspectRatio="xMidYMid"
       id="Strips1_4"
       style="fill:#000000"
       inkscape:stockid="Stripes 05 (1:4)"
       inkscape:isstock="true"
       inkscape:label="Streifen 05 (1:4)">
      <rect
   style="stroke:none"
   x="0"
   y="-0.5"
   width="1"
   height="2"
   id="rect158" />
    </pattern><pattern
       inkscape:collect="always"
       xlink:href="#pattern18-7"
       preserveAspectRatio="xMidYMid"
       id="pattern349"
       patternTransform="matrix(0.4,0,0,0.4,220,40)"
       x="0"
       y="0" /><pattern
       patternUnits="userSpaceOnUse"
       width="60"
       height="60"
       patternTransform="translate(220,40) scale(0.4)"
       preserveAspectRatio="xMidYMid"
       style="fill:#000000"
       id="pattern18-7"
       inkscape:label="Schlange"
       inkscape:collect="always"
       inkscape:isstock="true"><path
         id="path16-0"
         d="M 0,30 C 0,13.431458 13.43146,0 30,0 v 30 z m 60,0 C 60,13.431458 46.56854,0 30,0 V 30 Z M 30,30 C 30,46.568542 16.56854,60 0,60 V 30 Z m 0,0 c 0,16.568542 13.43146,30 30,30 V 30 Z"
         style="stroke:none;stroke-width:10;stroke-linecap:butt;stroke-dasharray:none;paint-order:stroke markers fill;stop-color:#000000" /></pattern><pattern
       inkscape:collect="always"
       xlink:href="#pattern18-7"
       preserveAspectRatio="xMidYMid"
       id="pattern348"
       patternTransform="matrix(0.4,0,0,0.4,220,40)" /><pattern
       inkscape:collect="always"
       xlink:href="#pattern18-7"
       preserveAspectRatio="xMidYMid"
       id="pattern347"
       patternTransform="matrix(0.4,0,0,0.4,220,40)" /></defs><g
     inkscape:label="Ebene 1"
     inkscape:groupmode="layer"
     id="layer1"
     transform="translate(212.77139,50.654556)"><rect
       style="opacity:1;fill:#ffffff;stroke:none;stroke-width:2.01639;stroke-dasharray:none;stroke-opacity:1;paint-order:markers stroke fill"
       id="rect1"
       width="562.39044"
       height="527.57697"
       x="-212.77139"
       y="-50.654556" /><g
       inkscape:label="Ebene 1"
       id="layer1-53"
       transform="matrix(1.5070812,0,0,1.5070812,-664.00055,-502.75653)"><g
         inkscape:label="Ebene 1"
         id="layer1-7"
         transform="translate(328.58889,356.32714)"><g
           id="g354"
           transform="translate(148.51295,-55.306499)"><path
             id="path12-9"
             d="M -10.789396,86.412516 C -15.712462,79.433896 -25.262252,77.501886 -33.235046,80.500296 -39.125409,80.972776 -44.354844,89.221406 -45.540793,89.308466 -39.750615,83.245216 -31.031295,82.195666 -23.338511,84.803656 -14.927097,84.818446 -8.4628187,92.128396 -3.7104077,98.318086 -3.6389647,103.55263 0.11665533,107.03299 -0.81445767,112.15429 L -5.3192687,122.45101 C -9.7248857,134.56457 -25.772241,135.82221 -35.887627,130.17354 -47.649971,125.10914 -54.328077,111.09828 -51.654464,98.639856 -53.487637,110.51669 -52.333124,124.03347 -42.323071,132.10417 -34.338729,144.74117 -11.406334,146.71569 -4.3539517,132.42594 -3.3693137,128.9221 -2.3575427,125.18401 0.15085933,122.45101 8.7354783,106.51755 -0.25616067,93.708686 -10.789396,86.412516 Z"
             style="fill:url(#pattern3);fill-opacity:1;stroke:none;stroke-width:2.70349;stroke-linecap:round;stroke-linejoin:round;stroke-miterlimit:4;stroke-dasharray:none;stroke-dashoffset:0;stroke-opacity:1"
             sodipodi:nodetypes="ccccccccccccc" /><g
             id="g353"><g
               id="layer1-6-4"
               transform="matrix(0.32177219,0,0,0.32177219,-166.59019,-3.8072268)"><path
                 id="path5-8"
                 style="opacity:1;fill:url(#pattern278);fill-opacity:1;stroke:#000000;stroke-width:14.6159;stroke-linecap:round;stroke-linejoin:round;stroke-miterlimit:4;stroke-dasharray:none;stroke-dashoffset:0;stroke-opacity:1"
                 d="M 730.92699,243.75916 C 710.50124,243.50308 689.71693,247.86213 671.30003,256.11267 667.41621,263.24542 660.69472,275.76827 661.34886,281.74939 661.61951,300.55623 641.33863,317.18381 672.99144,317.81971 693.69676,322.311 711.76045,314.38743 719.59105,294.32752 737.64824,287.83493 761.45406,282.07116 779.59105,294.32752 805.14565,308.44142 770.82466,328.08059 761.59105,315.32752 740.48113,315.01846 725.5477,328.57658 711.59105,344.32752 697.43234,363.23952 697.16405,391.21517 677.96995,408.35291 664.46574,422.31876 658.72623,444.62174 679.17113,459.97205 689.57588,468.8819 697.28175,459.03128 716.59105,463.32752 716.29391,479.7795 752.16108,471.85392 766.83519,477.70057 780.38186,489.26983 802.22729,490.52596 818.59105,481.32752 823.13898,468.89099 809.57995,456.90256 836.74339,453.78846 862.239,455.00129 865.98488,441.98757 858.59105,419.32752 849.15814,394.7526 843.84059,369.78241 844.90746,343.12244 846.66366,318.61073 812.43703,322.33542 808.0637,303.10486 811.42864,272.58995 781.06009,259.76115 759.59105,247.32752 750.32184,245.04622 740.66674,243.88127 730.92699,243.75916 Z M 671.30003,256.11267 C 674.58902,250.07237 675.87513,247.83814 668.59105,257.32752 669.48244,256.90413 670.39684,256.51729 671.30003,256.11267 Z M 771.34495,333.43104 C 777.71473,333.63436 783.97279,335.16783 789.83128,338.30018 798.12195,341.62361 806.15633,345.0738 812.85472,349.17713 898.03605,428.63808 792.089,474.59593 713.67113,420.04432 708.11016,410.29026 706.55882,407.98508 703.85472,404.17713 699.30473,370.02243 736.94814,332.33306 771.34495,333.43104 Z" /><path
                 id="path6-0"
                 d="M 907.77546,449.14566 C 911.17733,427.76881 908.4395,402.55724 906.77546,382.14566 885.3136,368.76085 896.86697,333.41393 881.77546,315.14566 857.45279,301.8483 853.6509,273.00676 847.77546,249.14566 825.31837,231.6931 853.68428,222.79404 871.5542,228.618 890.19001,226.05661 920.26251,240.12472 905.77546,262.14566 903.54251,269.22994 895.60038,276.90582 908.77546,278.14566 L 921.77546,277.14566 C 916.06827,262.41672 938.19835,245.13443 952.58769,239.73955 979.26416,226.52431 1014.7795,220.60683 1040.7755,237.14566 1056.3289,255.94164 1071.2743,295.77206 1040.7755,308.14566 1025.1529,315.25462 1004.8572,312.55587 1002.7755,292.14566 1002.9115,269.54316 1045.2753,294.17592 1023.7755,273.14566 1011.417,244.64565 974.36529,255.65714 957.77546,273.14566 930.89383,284.22025 931.6696,319.17902 931.57607,344.35721 934.83201,368.08718 952.83324,394.91318 935.77546,417.14566 948.74226,421.55404 979.24984,397.95662 981.77546,424.14566 981.75542,439.46627 997.92255,476.56696 977.3668,472.5452 956.56693,471.67731 932.93368,475.33632 913.77546,467.14566 910.45982,459.41884 909.5092,447.6866 910.77546,439.14566"
                 style="opacity:1;fill:url(#pattern280);fill-opacity:1;stroke:#000000;stroke-width:14.6159;stroke-linecap:round;stroke-linejoin:round;stroke-miterlimit:4;stroke-dasharray:none;stroke-dashoffset:0;stroke-opacity:1"
                 sodipodi:nodetypes="cccccccccccccccccccc" /><path
                 id="path8-4"
                 d="M 270.77546,134.14566 C 288.40221,134.41376 274.50873,166.50365 263.77546,173.14566 242.85241,185.14588 280.11667,183.89515 285.06035,165.09914 288.33247,161.20568 298.12017,140.33735 286.77546,144.14566"
                 style="opacity:1;fill:none;fill-opacity:1;stroke:#000000;stroke-width:14.6159;stroke-linecap:round;stroke-linejoin:round;stroke-miterlimit:4;stroke-dasharray:none;stroke-dashoffset:0;stroke-opacity:1" /><path
                 id="path9-2"
                 d="M 287.77546,145.14566 C 311.41025,159.49101 310.50883,199.66482 289.77546,216.14566 318.36803,207.27504 324.39618,170.16637 313.77546,145.14566 307.83297,115.93176 280.60608,100.12371 253.77546,94.145656 203.22538,79.401926 144.19908,102.17177 117.77546,148.14566 97.638463,169.54653 109.79749,199.19419 107.77546,225.14566 117.28746,257.58024 145.98239,279.68711 172.77546,298.14566 198.48276,305.47329 213.89582,330.00132 240.77546,334.14566 260.74281,340.11595 270.23779,358.88044 266.77546,379.14566 267.6953,393.95121 282.15444,413.78278 273.77546,425.14566 239.22913,435.03399 199.66854,430.65936 162.77546,435.14566 130.75193,437.10005 96.539322,451.28897 66.775461,433.14566 60.369483,418.58328 65.011903,397.33796 50.775461,388.14566 51.587244,411.15267 66.375077,432.17019 56.775461,455.14566 52.292062,480.38939 87.229229,475.09973 103.98906,475.38498 123.49068,472.32167 143.08747,478.16249 162.58135,472.2769 209.13183,471.03438 256.66549,477.36924 301.77546,463.14566 324.27272,463.40033 321.65177,445.87015 312.77546,430.14566 305.61163,394.89043 297.74921,359.6642 287.77546,325.14566 261.48495,308.46253 230.06031,302.85239 203.77546,285.14566 165.19499,267.59714 121.75565,225.9408 138.77546,179.14566 159.03854,138.95842 213.86639,104.26789 257.77546,129.14566 277.49558,139.46905 265.75613,160.11452 260.77546,176.14566 264.00219,177.51171 267.54773,177.78307 270.77546,179.14566"
                 style="opacity:1;fill:url(#pattern2);fill-opacity:1;stroke:#000000;stroke-width:14.6159;stroke-linecap:round;stroke-linejoin:round;stroke-miterlimit:4;stroke-dasharray:none;stroke-dashoffset:0;stroke-opacity:1" /><path
                 id="path10-9"
                 d="M 501.77546,391.14566 C 488.08373,428.79204 438.21194,432.70054 406.77546,415.14566 370.22058,399.40656 349.46644,355.86376 357.77546,317.14566 352.07835,354.05633 355.66633,396.06361 386.77546,421.14566 411.58911,460.41876 482.85815,466.55515 504.77546,422.14566 507.83551,411.25645 510.97988,399.63923 518.77546,391.14566"
                 style="opacity:1;fill:none;fill-opacity:1;stroke:#000000;stroke-width:14.6159;stroke-linecap:round;stroke-linejoin:round;stroke-miterlimit:4;stroke-dasharray:none;stroke-dashoffset:0;stroke-opacity:1" /><path
                 id="path11-61"
                 d="M 521.77546,388.14566 C 527.70497,363.29712 539.59676,331.22317 519.77546,310.14566 510.16729,304.2504 504.03572,294.78562 496.77546,287.14566"
                 style="opacity:1;fill:none;fill-opacity:1;stroke:#000000;stroke-width:14.6159;stroke-linecap:round;stroke-linejoin:round;stroke-miterlimit:4;stroke-dasharray:none;stroke-dashoffset:0;stroke-opacity:1" /><path
                 id="path12-04"
                 d="M 484.77546,279.14566 C 469.47561,257.45757 439.79688,251.4533 415.01912,260.77172 396.71312,262.24009 380.46114,287.87508 376.77546,288.14566 394.77011,269.30234 421.86791,266.04058 445.77546,274.14566 471.91636,274.1916 492.00597,296.90941 506.77546,316.14566 506.99749,332.41348 518.66916,343.22973 515.77546,359.14566"
                 style="opacity:1;fill:none;fill-opacity:1;stroke:#000000;stroke-width:14.6159;stroke-linecap:round;stroke-linejoin:round;stroke-miterlimit:4;stroke-dasharray:none;stroke-dashoffset:0;stroke-opacity:1" /><path
                 id="path13-2"
                 d="M 521.77546,412.14566 C 515.05371,434.00906 502.46154,462.64246 527.77546,478.14566 537.77673,483.24832 555.51031,521.9419 544.77546,508.14566 533.7798,494.80292 516.11314,490.8752 508.77546,473.14566 506.55058,455.42318 476.1044,451.73001 475.77546,464.14566 474.59574,473.86881 472.38856,518.31151 470.77546,505.14566 468.6575,487.57843 468.98924,454.22298 445.21797,466.09035 415.91535,455.52624 429.39503,472.63975 415.49057,491.19218 404.87236,516.16386 393.68615,499.51698 406.69907,481.45121 418.06738,462.5705 398.76525,451.24793 380.77546,457.14566 371.05278,443.95476 364.22096,495.16112 355.196,483.3608 360.83657,462.38678 369.23763,441.14456 381.77546,423.14566 374.98043,426.19298 358.26811,412.9339 371.77546,412.14566"
                 style="opacity:1;fill:none;fill-opacity:1;stroke:#000000;stroke-width:14.6159;stroke-linecap:round;stroke-linejoin:round;stroke-miterlimit:4;stroke-dasharray:none;stroke-dashoffset:0;stroke-opacity:1" /><path
                 id="path14-22"
                 d="M 582.77546,450.14566 C 564.58016,455.22998 555.91118,430.90115 560.77546,415.14566 565.25815,391.38345 570.82583,368.07594 585.47852,348.73955 597.60478,323.60599 617.63896,300.6248 613.15439,270.35641 615.90491,241.60775 622.24444,200.6863 592.77546,184.14566 574.91384,180.14345 559.94586,200.00153 558.77546,215.14566 559.99712,236.12409 553.07765,259.34067 560.77546,281.14566 L 559.77546,284.14566"
                 style="opacity:1;fill:none;fill-opacity:1;stroke:#000000;stroke-width:14.6159;stroke-linecap:round;stroke-linejoin:round;stroke-miterlimit:4;stroke-dasharray:none;stroke-dashoffset:0;stroke-opacity:1" /><path
                 id="path15-0"
                 d="M 591.77546,446.14566 C 571.41652,445.94704 588.63683,411.77054 587.5223,397.41146 595.74096,364.70305 609.78695,333.90855 629.77546,307.14566 628.96557,275.35937 627.55814,243.16891 624.77546,211.14566 624.0003,187.11886 610.92001,148.62114 579.77546,160.14566 556.67685,167.09878 542.24392,188.46753 547.05092,212.36102 538.98064,233.21527 553.54481,253.69855 551.77546,276.14566 551.27962,301.93978 567.69537,323.05578 573.77546,347.14566 L 572.85185,343.45121 572.77546,343.14566"
                 style="opacity:1;fill:none;fill-opacity:1;stroke:#000000;stroke-width:14.6159;stroke-linecap:round;stroke-linejoin:round;stroke-miterlimit:4;stroke-dasharray:none;stroke-dashoffset:0;stroke-opacity:1" /><path
                 id="path16-5"
                 d="M 561.77546,277.14566 C 560.3538,291.74128 574.82505,304.61702 576.77546,319.14566"
                 style="opacity:1;fill:none;fill-opacity:1;stroke:#000000;stroke-width:14.6159;stroke-linecap:round;stroke-linejoin:round;stroke-miterlimit:4;stroke-dasharray:none;stroke-dashoffset:0;stroke-opacity:1" /><path
                 id="path17-5"
                 d="M 593.77546,397.14566 C 591.93022,404.78329 606.31073,430.0484 599.77546,446.14566 591.89508,472.97483 632.27774,461.55917 620.77546,487.14566 598.25016,491.45058 563.90818,482.06322 573.77546,452.14566 L 575.77546,450.14566"
                 style="opacity:1;fill:none;fill-opacity:1;stroke:#000000;stroke-width:14.6159;stroke-linecap:round;stroke-linejoin:round;stroke-miterlimit:4;stroke-dasharray:none;stroke-dashoffset:0;stroke-opacity:1" /><path
                 id="path14-6"
                 d="M 562.77046,413.12367 C 567.25315,389.36146 572.82083,366.05395 587.47352,346.71756 599.59978,321.584 619.63396,298.60281 615.14939,268.33442 617.89991,239.58576 624.23944,198.66431 594.77046,182.12367 576.90884,178.12146 561.94086,197.97954 560.77046,213.12367 561.99212,234.1021 555.07265,257.31868 563.27046,277.12367 562.3488,289.71929 576.82005,302.59503 578.77046,317.12367 L 585.94959,326.88039 574.84685,341.42922 569.86606,341.77458 C 563.78597,317.6847 553.27462,299.91779 553.77046,274.12367 555.53981,251.67656 540.97564,231.19328 549.04592,210.33903 544.23892,186.44554 558.67185,165.07679 581.77046,158.12367 612.91501,146.59915 625.9953,185.09687 626.77046,209.12367 629.55314,241.14692 630.96057,273.33738 631.77046,305.12367 611.78195,331.88656 597.73596,362.68106 589.5173,395.38947 L 595.77046,395.12367 C 593.92522,402.7613 608.30573,428.02641 601.77046,444.12367 593.89008,470.95284 634.27274,459.53718 622.77046,485.12367 600.24516,489.42859 565.90318,480.04123 575.77046,450.12367 L 581.27046,448.12367 C 566.57516,453.20799 557.90618,428.87916 562.77046,413.12367 Z"
                 style="fill:url(#pattern275);fill-opacity:1;stroke:none;stroke-width:14.6159;stroke-linecap:round;stroke-linejoin:round;stroke-miterlimit:4;stroke-dasharray:none;stroke-dashoffset:0;stroke-opacity:1"
                 sodipodi:nodetypes="cccccccccccccccccccccc" /><path
                 id="path18-2"
                 d="M 159.81232,507.00414 C 154.47712,506.33639 162.43612,536.01959 162.55912,496.26994 162.18502,486.93343 191.70982,499.26994 198.81232,506.00414 244.13492,528.03131 296.85552,539.15092 336.81232,571.00414 352.01682,578.46868 381.27002,574.87881 373.81232,599.00414 361.36802,616.72215 370.35882,637.15532 379.81232,653.00414 342.86412,665.56281 311.31902,694.96614 269.81232,695.00414 252.05042,704.26346 233.10342,694.55082 214.81232,696.00414 202.83572,736.27168 223.16832,778.65384 218.08052,820.03083 222.72132,835.27489 200.02532,867.94696 223.81232,869.00414 243.81942,869.39719 265.52212,866.89805 278.81232,883.00414 271.20252,897.11833 285.36052,932.13748 266.39162,928.7113 217.14282,930.65391 169.12202,918.39182 120.81232,915.00414 91.570722,914.59527 92.857022,913.8423 105.81232,891.00414 98.295322,867.96342 106.47812,858.71273 129.61522,860.80399 148.47722,865.67523 152.53892,838.28732 149.81232,823.00414 144.08072,789.04174 162.05502,751.92234 144.81232,720.00414 146.89982,694.71667 147.52842,670.00255 137.81232,646.00414"
                 style="opacity:1;fill:none;fill-opacity:1;stroke:#000000;stroke-width:14.6159;stroke-linecap:round;stroke-linejoin:round;stroke-miterlimit:4;stroke-dasharray:none;stroke-dashoffset:0;stroke-opacity:1" /><path
                 id="path19-90"
                 d="M 158.81232,539.00414 C 149.57532,556.99743 160.30112,576.82761 154.08362,595.80261 163.65772,612.41158 145.21762,635.64157 146.81232,637.00414"
                 style="opacity:1;fill:none;fill-opacity:1;stroke:#000000;stroke-width:14.6159;stroke-linecap:round;stroke-linejoin:round;stroke-miterlimit:4;stroke-dasharray:none;stroke-dashoffset:0;stroke-opacity:1" /><path
                 id="path20-28"
                 d="M 197.81232,550.00414 C 198.68222,568.96478 190.70372,589.84464 197.81232,606.00414 192.93392,621.49013 211.60782,662.14643 205.21842,655.30108 235.68542,650.01812 267.50032,641.13939 289.81232,619.00414 309.56422,615.46792 315.54742,606.06605 305.81232,595.00414 280.82732,589.28747 252.83852,591.90943 233.81232,572.00414 222.20292,574.30879 201.61402,554.80124 199.81232,565.00414"
                 style="opacity:1;fill:none;fill-opacity:1;stroke:#000000;stroke-width:14.6159;stroke-linecap:round;stroke-linejoin:round;stroke-miterlimit:4;stroke-dasharray:none;stroke-dashoffset:0;stroke-opacity:1" /><path
                 id="path19-0"
                 style="fill:url(#pattern310);fill-opacity:1;stroke:none;stroke-width:14.6159;stroke-linecap:round;stroke-linejoin:round;stroke-miterlimit:4;stroke-dasharray:none;stroke-dashoffset:0;stroke-opacity:1"
                 d="M 167.58972,493.14867 C 164.76342,493.19985 162.98842,494.17978 163.08192,496.5139 L 159.33582,539.24828 C 150.09882,557.24155 160.82282,577.07213 154.60532,596.04711 164.17942,612.65606 145.74112,635.88571 147.33582,637.24828 L 138.33582,646.24828 C 148.05192,670.24667 147.42332,694.96084 145.33582,720.24828 162.57852,752.16645 144.60422,789.28592 150.33582,823.24828 153.06242,838.53145 149.00052,865.91835 130.13852,861.04711 107.00152,858.95585 98.818822,868.20759 106.33582,891.24828 93.380522,914.08642 92.094222,914.83941 121.33582,915.24828 169.64552,918.63596 217.66522,930.89792 266.91392,928.95531 285.88282,932.38149 271.72602,897.36246 279.33582,883.24828 266.04562,867.14221 244.34292,869.64133 224.33582,869.24828 200.54882,868.1911 223.24422,835.51967 218.60342,820.27563 223.69122,778.89868 203.35922,736.51578 215.33582,696.24828 233.62692,694.79496 252.57392,704.50759 270.33582,695.24828 311.84252,695.21028 343.38762,665.80694 380.33582,653.24828 370.88232,637.39948 361.89152,616.96627 374.33582,599.24828 381.79352,575.12297 352.54032,578.71281 337.33582,571.24828 297.37902,539.39509 244.65842,528.27543 199.33582,506.24828 194.00892,501.19763 176.06872,492.99514 167.58972,493.14867 Z M 202.88272,562.97484 C 210.71372,562.53599 225.26602,574.04879 234.33582,572.24828 253.36202,592.15355 281.35082,589.53162 306.33582,595.24828 316.07092,606.31018 310.08772,615.71206 290.33582,619.24828 268.34492,641.06501 237.12312,649.99597 207.05852,655.30687 207.16542,656.482 206.80962,656.69095 205.74012,655.54516 206.17852,655.46914 206.61962,655.38441 207.05852,655.30687 206.52652,649.46145 194.27402,619.14216 198.33582,606.24828 191.22722,590.0888 196.84282,587.13082 198.15422,566.70922 199.02542,564.15774 200.69002,563.09772 202.88272,562.97484 Z" /><path
                 id="path21-3"
                 d="M 373.81232,878.00414 V 878.00414"
                 style="opacity:1;fill:none;fill-opacity:1;stroke:#000000;stroke-width:14.6159;stroke-linecap:round;stroke-linejoin:round;stroke-miterlimit:4;stroke-dasharray:none;stroke-dashoffset:0;stroke-opacity:1" /><path
                 id="path22-8"
                 d="M 374.81232,868.00414 C 392.13492,891.96024 378.86042,864.74028 394.81232,867.00414 412.51102,862.21486 413.40472,887.51143 435.81232,873.00414 427.71912,855.73975 466.77132,866.3973 453.44602,834.59728 457.40772,814.56535 459.57932,795.10025 454.04982,775.2034 459.62242,758.66078 452.73992,734.91137 463.60732,727.68789 486.18642,726.05985 502.40502,720.39831 503.81232,743.00414 519.06192,760.4351 486.24582,778.40307 495.81232,799.00414 504.69722,831.29136 493.95282,864.32118 497.21762,897.03561 501.46852,925.59719 468.28992,934.92661 446.02742,928.5836 413.71102,932.02504 378.53802,930.62597 347.81232,919.00414 340.54302,899.61629 325.27852,885.23908 326.87912,864.19657 327.02092,820.07721 331.77202,775.66 326.81232,732.00414 330.21082,714.26612 361.65632,718.38857 374.81232,723.00414 391.52222,725.70311 370.52362,748.41499 382.81232,761.00414 354.36162,751.18902 364.44702,769.48972 366.05442,787.58264 366.37052,803.81476 344.68372,833.20503 370.81232,814.00414 381.35472,788.52945 387.72332,824.15869 365.81232,824.00414 373.57902,834.04963 347.63302,850.27084 364.81232,858.00414 375.01802,854.54518 396.73932,870.54491 388.81232,872.00414"
                 style="opacity:1;fill:url(#pattern333);fill-opacity:1;stroke:#000000;stroke-width:14.6159;stroke-linecap:round;stroke-linejoin:round;stroke-miterlimit:4;stroke-dasharray:none;stroke-dashoffset:0;stroke-opacity:1" /><path
                 id="path23-0"
                 d="M 546.81232,737.00414 C 555.20192,779.65857 537.31372,826.22863 552.81232,869.00414 544.93022,882.38549 560.39372,933.88971 555.45872,900.82474 554.90992,898.21788 554.36112,895.61101 553.81232,893.00414"
                 style="opacity:1;fill:none;fill-opacity:1;stroke:#000000;stroke-width:14.6159;stroke-linecap:round;stroke-linejoin:round;stroke-miterlimit:4;stroke-dasharray:none;stroke-dashoffset:0;stroke-opacity:1" /><path
                 id="path24-4"
                 d="M 545.81232,737.00414 C 559.30522,726.14098 582.78152,724.35218 598.81232,729.00414 580.70682,737.88274 607.96002,765.70012 601.88872,771.30969 588.82082,745.04046 607.02852,782.84333 618.78602,787.38307 637.66872,801.30052 650.75272,825.47344 672.81232,833.00414 669.79932,853.90537 674.00452,807.0077 666.81232,797.00414 658.27732,778.07656 655.95542,755.43546 650.81232,737.00414 666.57912,729.78497 692.47912,723.95311 698.21842,737.7072 729.39312,754.32315 703.84672,793.83689 710.90292,820.81121 713.32962,850.26656 709.52832,882.01582 714.81232,910.00414 723.91562,929.64725 683.10832,917.89827 671.07812,917.2573 645.38372,923.90652 661.74442,867.13759 663.81232,879.00414 647.68382,847.51377 619.70932,823.92197 589.81232,806.00414 587.24302,810.66931 592.49012,844.73745 596.22662,859.53992 607.40652,875.96093 594.48732,898.52222 606.81232,914.00414 617.21982,885.11648 631.25102,937.00507 602.25482,923.94883 584.41512,928.59574 551.69042,936.37164 553.97122,907.43442 547.97062,901.32897 558.44782,891.02456 548.81232,890.00414"
                 style="opacity:1;fill:url(#pattern343);fill-opacity:1;stroke:#000000;stroke-width:14.6159;stroke-linecap:round;stroke-linejoin:round;stroke-miterlimit:4;stroke-dasharray:none;stroke-dashoffset:0;stroke-opacity:1" /><path
                 id="path25-0"
                 d="M 835.81232,683.00414 C 841.39882,683.58735 870.67122,693.15077 880.81232,704.00414 897.86332,711.52751 894.23722,726.82091 881.81232,741.00414 870.70322,752.46739 849.42152,757.51677 834.81232,754.00414 837.45582,736.07671 822.36952,722.53826 818.81232,704.00414 815.90382,684.71099 853.11482,658.52129 829.81232,687.00414 823.57282,696.57051 832.78082,678.50435 823.81232,677.00414"
                 style="opacity:1;fill:none;fill-opacity:1;stroke:#000000;stroke-width:14.6159;stroke-linecap:round;stroke-linejoin:round;stroke-miterlimit:4;stroke-dasharray:none;stroke-dashoffset:0;stroke-opacity:1" /><path
                 id="path25-6"
                 d="M 839.29692,683.43948 C 844.88342,684.02269 874.15582,693.58611 884.29692,704.43948 901.34792,711.96285 897.72182,727.25625 885.29692,741.43948 874.18782,752.90273 852.90612,757.95211 838.29692,754.43948 840.94042,736.51205 825.85412,722.9736 822.29692,704.43948 824.71682,693.56531 818.29322,672.13847 839.29692,683.43948 Z"
                 style="fill:url(#pattern351);fill-opacity:1;stroke:none;stroke-width:14.6159;stroke-linecap:round;stroke-linejoin:round;stroke-miterlimit:4;stroke-dasharray:none;stroke-dashoffset:0;stroke-opacity:1"
                 sodipodi:nodetypes="cccccc" /><path
                 id="path26-91"
                 d="M 819.81232,673.00414 C 813.56482,661.76406 825.89772,641.40924 831.81232,628.00414 843.74052,596.15265 863.46542,567.82835 881.55912,540.26994 879.40022,520.8504 924.78622,493.21 908.81232,503.00414 921.17352,520.77336 943.21672,527.51277 957.81232,543.00414 944.66582,553.90667 921.14772,557.87595 926.81232,581.00414 908.36312,608.63929 880.25512,627.85467 861.11952,654.69691 855.58422,663.41235 839.27042,665.41618 844.81232,678.00414"
                 style="opacity:1;fill:none;fill-opacity:1;stroke:#000000;stroke-width:14.6159;stroke-linecap:round;stroke-linejoin:round;stroke-miterlimit:4;stroke-dasharray:none;stroke-dashoffset:0;stroke-opacity:1" /><path
                 id="path27-9"
                 d="M 869.81232,776.00414 C 869.86762,770.1851 894.05662,795.44281 899.81232,805.00414 913.82412,818.51211 921.26102,839.61444 941.81232,843.00414 964.72422,854.61022 944.29232,870.74106 935.81232,884.00414 911.78532,892.13645 908.30792,858.4641 895.81232,844.00414 880.45822,821.29048 857.06732,802.78015 850.81232,775.00414 840.93492,772.03591 840.75742,757.32087 829.81232,755.00414"
                 style="opacity:1;fill:none;fill-opacity:1;stroke:#000000;stroke-width:14.6159;stroke-linecap:round;stroke-linejoin:round;stroke-miterlimit:4;stroke-dasharray:none;stroke-dashoffset:0;stroke-opacity:1" /><path
                 id="path28-6"
                 d="M 808.81232,740.00414 C 807.29692,742.60789 794.09642,767.42758 788.81232,780.00414 779.20012,804.98994 773.19262,831.68995 762.06552,855.73834 748.00362,865.48115 741.55722,838.1441 750.81232,827.00414 753.95522,803.8372 773.05632,785.03825 767.35092,760.23426 770.50462,745.68569 775.73602,711.88756 784.81232,717.00414 775.01452,703.62673 773.98102,668.77345 782.50672,659.08053 801.65922,651.27566 804.65702,660.66835 807.81232,678.00414"
                 style="opacity:1;fill:none;fill-opacity:1;stroke:#000000;stroke-width:14.6159;stroke-linecap:round;stroke-linejoin:round;stroke-miterlimit:4;stroke-dasharray:none;stroke-dashoffset:0;stroke-opacity:1" /><path
                 id="path29-2"
                 d="M 829.81232,750.00414 C 832.94532,765.53554 825.95322,790.77021 829.64492,810.64819 832.78622,863.23207 849.51492,914.38404 849.81232,967.00414 855.98042,982.41464 815.16662,969.6741 801.04242,968.46559 778.30482,967.4198 799.08092,936.90906 795.81232,922.00414 797.13292,898.81915 789.86092,877.05122 789.41282,854.59548 796.05952,833.6617 780.53772,813.05561 792.81232,793.00414 787.32302,786.59529 800.59562,756.81361 787.81232,775.00414"
                 style="opacity:1;fill:none;fill-opacity:1;stroke:#000000;stroke-width:14.6159;stroke-linecap:round;stroke-linejoin:round;stroke-miterlimit:4;stroke-dasharray:none;stroke-dashoffset:0;stroke-opacity:1" /><path
                 id="path29-0"
                 d="M 834.18372,748.64049 C 837.31672,764.17189 830.32462,789.40656 834.01632,809.28454 837.15762,861.86842 853.88632,913.02039 854.18372,965.64049 860.35182,981.05099 819.53802,968.31045 805.41382,967.10194 782.67622,966.05615 803.45232,935.54541 800.18372,920.64049 801.50432,897.4555 794.23232,875.68757 793.78422,853.23183 800.43092,832.29805 784.90912,811.69196 797.18372,791.64049 791.69442,785.23164 804.96702,755.44996 792.18372,773.64049 Z"
                 style="fill:url(#pattern353);fill-opacity:1;stroke:none;stroke-width:14.6159;stroke-linecap:round;stroke-linejoin:round;stroke-miterlimit:4;stroke-dasharray:none;stroke-dashoffset:0;stroke-opacity:1"
                 sodipodi:nodetypes="ccccccccc" /><path
                 id="path30-5"
                 d="M 847.81232,700.00414 C 866.39082,677.91189 829.35922,690.10381 827.10922,706.41025 816.26652,722.36037 831.30012,751.16945 851.81232,738.00414 857.09842,736.49262 862.26632,735.24092 867.81232,735.00414"
                 style="opacity:1;fill:none;fill-opacity:1;stroke:#000000;stroke-width:14.6159;stroke-linecap:round;stroke-linejoin:round;stroke-miterlimit:4;stroke-dasharray:none;stroke-dashoffset:0;stroke-opacity:1" /></g><g
               id="layer1-5-4"
               transform="matrix(0.32177219,0,0,0.32177219,-493.45773,308.86046)"><path
                 id="path201-2"
                 d="M 1935.2297,-414.53178 V -414.53178 L 1932.2297,-416.53178 1930.2297,-418.53178 1928.2297,-420.53178 1926.2297,-422.53178 1924.2297,-425.53178 1923.2297,-428.53178 1921.2297,-432.53178 1919.2297,-436.53178 1918.2297,-440.53178 1916.2297,-444.53178 1915.2297,-449.53178 1913.2297,-452.53178 1911.2297,-454.53178 1914.2297,-455.53178 1917.2297,-454.53178 1920.2297,-453.53178 1924.2297,-452.53178 1928.2297,-450.53178 1932.2297,-449.53178 1936.2297,-446.53178 1939.2297,-444.53178 1942.2297,-441.53178 1944.2297,-438.53178 1946.2297,-434.53178 1947.2297,-430.53178 1949.2297,-427.53178 1951.2297,-424.53178 1953.2297,-421.53178 1955.2297,-419.53178 1957.2297,-417.53178 1959.2297,-415.53178 1956.2297,-413.53178 1954.2297,-411.53178 1950.2297,-406.53178"
                 style="opacity:1;fill:url(#pattern349);fill-opacity:1;stroke:none;stroke-width:3;stroke-linecap:round;stroke-linejoin:round;stroke-miterlimit:4;stroke-dasharray:none;stroke-dashoffset:0;stroke-opacity:1" /><path
                 id="path202-2"
                 d="M 1940.2297,-108.53178 V -108.53178 L 1937.2297,-109.53178 1936.2297,-113.53178 1937.2297,-119.53178 1939.2297,-122.53178 1941.2297,-126.53178 1944.2297,-129.53178 1947.2297,-132.53178 1949.2297,-134.53178 1951.2297,-136.53178 1955.2297,-138.53178 1958.2297,-137.53178 1959.2297,-132.53178 1960.2297,-129.53178 1962.2297,-126.53178 1963.2297,-123.53178 1962.2297,-119.53178 1959.2297,-115.53178 1956.2297,-111.53178 1954.2297,-109.53178 1950.2297,-107.53178 1947.2297,-105.53178 1944.2297,-104.53178 1941.2297,-102.53178 1937.2297,-101.53178 1932.2297,-100.53178 1927.2297,-102.53178 1919.2297,-107.53178"
                 style="opacity:1;fill:url(#pattern348);fill-opacity:1;stroke:none;stroke-width:3;stroke-linecap:round;stroke-linejoin:round;stroke-miterlimit:4;stroke-dasharray:none;stroke-dashoffset:0;stroke-opacity:1" /><path
                 id="path203-8"
                 d="M 1790.2297,-136.53178 V -136.53178 L 1789.2297,-139.53178 1788.2297,-142.53178 1785.2297,-147.53178 1783.2297,-149.53178 1781.2297,-152.53178 1778.2297,-155.53178 1776.2297,-157.53178 1773.2297,-159.53178 1770.2297,-158.53178 1769.2297,-155.53178 1768.2297,-152.53178 1767.2297,-148.53178 1768.2297,-141.53178 1769.2297,-138.53178 1770.2297,-135.53178 1769.2297,-132.53178 1772.2297,-131.53178 1775.2297,-130.53178 1778.2297,-131.53178 1781.2297,-130.53178 1783.2297,-128.53178 1786.2297,-126.53178 1789.2297,-127.53178"
                 style="opacity:1;fill:url(#pattern347);fill-opacity:1;stroke:none;stroke-width:3;stroke-linecap:round;stroke-linejoin:round;stroke-miterlimit:4;stroke-dasharray:none;stroke-dashoffset:0;stroke-opacity:1" /></g></g></g></g></g></g></svg>
